ISO-10303-21;
HEADER;
FILE_DESCRIPTION (( 'STEP AP214' ),
    '1' );
FILE_NAME ('CL21B223KBANNNC.STEP',
    '2021-06-17T20:23:48',
    ( '' ),
    ( '' ),
    'SwSTEP 2.0',
    'SolidWorks 2017',
    '' );
FILE_SCHEMA (( 'AUTOMOTIVE_DESIGN' ));
ENDSEC;

DATA;
#1 = EDGE_CURVE ( 'NONE', #665, #1101, #334, .T. ) ;
#2 = CARTESIAN_POINT ( 'NONE',  ( -0.9499999999999999600, 0.7500000000000000000, -0.5749999999999998400 ) ) ;
#3 = LINE ( 'NONE', #1149, #1058 ) ;
#4 = PLANE ( 'NONE',  #935 ) ;
#5 = EDGE_LOOP ( 'NONE', ( #117, #600, #1205 ) ) ;
#6 = ORIENTED_EDGE ( 'NONE', *, *, #1080, .F. ) ;
#7 = ORIENTED_EDGE ( 'NONE', *, *, #312, .F. ) ;
#8 = AXIS2_PLACEMENT_3D ( 'NONE', #516, #40, #401 ) ;
#9 = CARTESIAN_POINT ( 'NONE',  ( -0.9499999999999995100, 0.6999999999999999600, 0.5749999999999996200 ) ) ;
#10 =( GEOMETRIC_REPRESENTATION_CONTEXT ( 3 ) GLOBAL_UNCERTAINTY_ASSIGNED_CONTEXT ( ( #345 ) ) GLOBAL_UNIT_ASSIGNED_CONTEXT ( ( #460, #569, #873 ) ) REPRESENTATION_CONTEXT ( 'NONE', 'WORKASPACE' ) );
#11 = LINE ( 'NONE', #350, #226 ) ;
#12 = FACE_OUTER_BOUND ( 'NONE', #961, .T. ) ;
#13 = EDGE_CURVE ( 'NONE', #338, #888, #496, .T. ) ;
#14 = PRESENTATION_STYLE_ASSIGNMENT (( #265 ) ) ;
#15 = DIRECTION ( 'NONE',  ( -1.000000000000000000, 0.0000000000000000000, 0.0000000000000000000 ) ) ;
#16 = ORIENTED_EDGE ( 'NONE', *, *, #542, .F. ) ;
#17 = FACE_OUTER_BOUND ( 'NONE', #317, .T. ) ;
#18 = DIRECTION ( 'NONE',  ( -1.000000000000000000, -0.0000000000000000000, -0.0000000000000000000 ) ) ;
#19 = VERTEX_POINT ( 'NONE', #725 ) ;
#20 = VERTEX_POINT ( 'NONE', #140 ) ;
#21 = DIRECTION ( 'NONE',  ( 0.0000000000000000000, 1.000000000000000000, 0.0000000000000000000 ) ) ;
#22 = ORIENTED_EDGE ( 'NONE', *, *, #1138, .T. ) ;
#23 = ORIENTED_EDGE ( 'NONE', *, *, #849, .T. ) ;
#24 = DIRECTION ( 'NONE',  ( -0.0000000000000000000, -0.0000000000000000000, -1.000000000000000000 ) ) ;
#25 = AXIS2_PLACEMENT_3D ( 'NONE', #703, #801, #214 ) ;
#26 = APPLICATION_PROTOCOL_DEFINITION ( 'draft international standard', 'automotive_design', 1998, #684 ) ;
#27 = VECTOR ( 'NONE', #456, 1000.000000000000000 ) ;
#28 = AXIS2_PLACEMENT_3D ( 'NONE', #1057, #771, #664 ) ;
#29 = CARTESIAN_POINT ( 'NONE',  ( 0.9999999999999995600, 0.6999999999999999600, 0.5749999999999996200 ) ) ;
#30 = CARTESIAN_POINT ( 'NONE',  ( -1.000000000000000000, 0.05000000000000002400, -0.6249999999999998900 ) ) ;
#31 = ORIENTED_EDGE ( 'NONE', *, *, #1189, .T. ) ;
#32 =( NAMED_UNIT ( * ) PLANE_ANGLE_UNIT ( ) SI_UNIT ( $, .RADIAN. ) );
#33 = ORIENTED_EDGE ( 'NONE', *, *, #583, .T. ) ;
#34 = ORIENTED_EDGE ( 'NONE', *, *, #776, .F. ) ;
#35 = AXIS2_PLACEMENT_3D ( 'NONE', #159, #642, #945 ) ;
#36 = AXIS2_PLACEMENT_3D ( 'NONE', #288, #985, #586 ) ;
#37 = ADVANCED_FACE ( 'NONE', ( #746 ), #1220, .T. ) ;
#38 = CARTESIAN_POINT ( 'NONE',  ( 0.9999999999999995600, 0.05000000000000002400, 0.5749999999999996200 ) ) ;
#39 = CARTESIAN_POINT ( 'NONE',  ( 0.9499999999999999600, 0.7500000000000000000, -0.5749999999999998400 ) ) ;
#40 = DIRECTION ( 'NONE',  ( 0.0000000000000000000, -1.000000000000000000, 0.0000000000000000000 ) ) ;
#41 = AXIS2_PLACEMENT_3D ( 'NONE', #328, #420, #616 ) ;
#42 = FACE_OUTER_BOUND ( 'NONE', #285, .T. ) ;
#43 = DIRECTION ( 'NONE',  ( 0.0000000000000000000, 0.0000000000000000000, -1.000000000000000000 ) ) ;
#44 = CIRCLE ( 'NONE', #682, 0.05000000000000002400 ) ;
#45 = VERTEX_POINT ( 'NONE', #38 ) ;
#46 = LINE ( 'NONE', #708, #332 ) ;
#47 = EDGE_LOOP ( 'NONE', ( #1060, #666, #1030, #526 ) ) ;
#48 = CYLINDRICAL_SURFACE ( 'NONE', #711, 0.05000000000000002400 ) ;
#49 = DIRECTION ( 'NONE',  ( 0.0000000000000000000, 0.0000000000000000000, -1.000000000000000000 ) ) ;
#50 = ORIENTED_EDGE ( 'NONE', *, *, #235, .F. ) ;
#51 = DIRECTION ( 'NONE',  ( 0.0000000000000000000, 0.0000000000000000000, 1.000000000000000000 ) ) ;
#52 = DIRECTION ( 'NONE',  ( 0.0000000000000000000, 0.0000000000000000000, 1.000000000000000000 ) ) ;
#53 = EDGE_CURVE ( 'NONE', #357, #45, #898, .T. ) ;
#54 = DIRECTION ( 'NONE',  ( 0.0000000000000000000, 0.0000000000000000000, -1.000000000000000000 ) ) ;
#55 = EDGE_CURVE ( 'NONE', #1275, #864, #1239, .T. ) ;
#56 = VECTOR ( 'NONE', #812, 1000.000000000000000 ) ;
#57 = CIRCLE ( 'NONE', #790, 0.03333333333333334700 ) ;
#58 = STYLED_ITEM ( 'NONE', ( #884 ), #671 ) ;
#59 = DIRECTION ( 'NONE',  ( 0.0000000000000000000, 0.0000000000000000000, 1.000000000000000000 ) ) ;
#60 = CARTESIAN_POINT ( 'NONE',  ( -0.4999999999999997800, 0.7500000000000000000, -0.6249999999999998900 ) ) ;
#61 = COLOUR_RGB ( '',0.7921568627450980000, 0.8196078431372548800, 0.9333333333333333500 ) ;
#62 = CARTESIAN_POINT ( 'NONE',  ( 0.4999999999881765700, 0.05000000000000002400, -0.6083333333333331700 ) ) ;
#63 = ORIENTED_EDGE ( 'NONE', *, *, #53, .F. ) ;
#64 = EDGE_LOOP ( 'NONE', ( #530, #6, #351, #551 ) ) ;
#65 = EDGE_CURVE ( 'NONE', #791, #381, #245, .T. ) ;
#66 = VERTEX_POINT ( 'NONE', #528 ) ;
#67 = DIRECTION ( 'NONE',  ( 0.0000000000000000000, 0.0000000000000000000, -1.000000000000000000 ) ) ;
#68 = ADVANCED_FACE ( 'NONE', ( #1256 ), #48, .T. ) ;
#69 = AXIS2_PLACEMENT_3D ( 'NONE', #1003, #24, #502 ) ;
#70 = DIRECTION ( 'NONE',  ( -1.000000000000000000, -0.0000000000000000000, 8.673617379884036700E-017 ) ) ;
#71 = DIRECTION ( 'NONE',  ( 0.0000000000000000000, 0.0000000000000000000, -1.000000000000000000 ) ) ;
#72 = CARTESIAN_POINT ( 'NONE',  ( 0.9499999999999999600, 0.05000000000000002400, -0.5749999999999998400 ) ) ;
#73 = CARTESIAN_POINT ( 'NONE',  ( 0.9499999999999995100, 0.7500000000000000000, 0.6249999999999996700 ) ) ;
#74 = DIRECTION ( 'NONE',  ( 0.0000000000000000000, 0.0000000000000000000, 1.000000000000000000 ) ) ;
#75 = DIRECTION ( 'NONE',  ( 0.0000000000000000000, 0.0000000000000000000, -1.000000000000000000 ) ) ;
#76 = ADVANCED_FACE ( 'NONE', ( #826 ), #928, .T. ) ;
#77 = DIRECTION ( 'NONE',  ( 3.469446951953615200E-016, 0.0000000000000000000, -1.000000000000000000 ) ) ;
#78 = SPHERICAL_SURFACE ( 'NONE', #836, 0.05000000000000000300 ) ;
#79 = DIRECTION ( 'NONE',  ( 0.0000000000000000000, -1.000000000000000000, 0.0000000000000000000 ) ) ;
#80 = EDGE_CURVE ( 'NONE', #259, #926, #566, .T. ) ;
#81 = FACE_OUTER_BOUND ( 'NONE', #437, .T. ) ;
#82 = PLANE ( 'NONE',  #382 ) ;
#83 = CARTESIAN_POINT ( 'NONE',  ( -0.4999999999999996700, 0.05000000000000002400, 0.6083333333333331700 ) ) ;
#84 = ORIENTED_EDGE ( 'NONE', *, *, #1050, .F. ) ;
#85 = CARTESIAN_POINT ( 'NONE',  ( 0.4999999999881765700, 0.7333333333333333900, -0.5750000001301038800 ) ) ;
#86 = EDGE_LOOP ( 'NONE', ( #1255, #565, #669, #1164 ) ) ;
#87 = CLOSED_SHELL ( 'NONE', ( #170, #1055, #1049, #1274, #99, #943, #408, #76, #1221, #319, #471, #272, #447, #1180, #183, #260, #1277, #876 ) ) ;
#88 = VERTEX_POINT ( 'NONE', #442 ) ;
#89 = CARTESIAN_POINT ( 'NONE',  ( -1.000000000000000000, 0.7500000000000000000, -0.6249999999999998900 ) ) ;
#90 = CARTESIAN_POINT ( 'NONE',  ( -0.9499999999999999600, 0.05000000000000002400, -0.6249999999999998900 ) ) ;
#91 = CARTESIAN_POINT ( 'NONE',  ( 500000.0000000000600, 0.6999999999999999600, 0.6083333332899650800 ) ) ;
#92 = ADVANCED_FACE ( 'NONE', ( #434 ), #589, .T. ) ;
#93 = DIRECTION ( 'NONE',  ( 1.000000000000000000, 0.0000000000000000000, -3.469446951953615200E-016 ) ) ;
#94 = PRODUCT_DEFINITION_CONTEXT ( 'detailed design', #208, 'design' ) ;
#95 = DIRECTION ( 'NONE',  ( 0.0000000000000000000, 0.0000000000000000000, 1.000000000000000000 ) ) ;
#96 = VECTOR ( 'NONE', #519, 1000.000000000000000 ) ;
#97 = VECTOR ( 'NONE', #1117, 1000.000000000000000 ) ;
#98 = EDGE_CURVE ( 'NONE', #1142, #888, #352, .T. ) ;
#99 = ADVANCED_FACE ( 'NONE', ( #295 ), #1162, .T. ) ;
#100 = ORIENTED_EDGE ( 'NONE', *, *, #312, .T. ) ;
#101 = CYLINDRICAL_SURFACE ( 'NONE', #1042, 0.05000000000000002400 ) ;
#102 = CARTESIAN_POINT ( 'NONE',  ( 0.4999999999999995600, 0.7500000000000000000, 0.5749999999999996200 ) ) ;
#103 = ORIENTED_EDGE ( 'NONE', *, *, #802, .F. ) ;
#104 = PRODUCT_RELATED_PRODUCT_CATEGORY ( 'part', '', ( #223 ) ) ;
#105 = ORIENTED_EDGE ( 'NONE', *, *, #809, .F. ) ;
#106 = ORIENTED_EDGE ( 'NONE', *, *, #177, .T. ) ;
#107 = EDGE_CURVE ( 'NONE', #193, #1163, #788, .T. ) ;
#108 = DIRECTION ( 'NONE',  ( -1.000000000000000000, 0.0000000000000000000, -0.0000000000000000000 ) ) ;
#109 = AXIS2_PLACEMENT_3D ( 'NONE', #783, #891, #125 ) ;
#110 = DIRECTION ( 'NONE',  ( -0.0000000000000000000, -0.0000000000000000000, -1.000000000000000000 ) ) ;
#111 = FACE_OUTER_BOUND ( 'NONE', #772, .T. ) ;
#112 = DIRECTION ( 'NONE',  ( 1.000000000000000000, 0.0000000000000000000, -0.0000000000000000000 ) ) ;
#113 = VECTOR ( 'NONE', #831, 1000.000000000000000 ) ;
#114 = CARTESIAN_POINT ( 'NONE',  ( 0.4999999999999995600, 0.05000000000000002400, 0.5749999999999996200 ) ) ;
#115 = VECTOR ( 'NONE', #185, 1000.000000000000000 ) ;
#116 = ORIENTED_EDGE ( 'NONE', *, *, #503, .F. ) ;
#117 = ORIENTED_EDGE ( 'NONE', *, *, #570, .T. ) ;
#118 = AXIS2_PLACEMENT_3D ( 'NONE', #91, #266, #858 ) ;
#119 = DIRECTION ( 'NONE',  ( 0.0000000000000000000, 0.0000000000000000000, 1.000000000000000000 ) ) ;
#120 = ORIENTED_EDGE ( 'NONE', *, *, #53, .T. ) ;
#121 = SURFACE_SIDE_STYLE ('',( #571 ) ) ;
#122 = LINE ( 'NONE', #762, #151 ) ;
#123 = AXIS2_PLACEMENT_3D ( 'NONE', #1146, #643, #952 ) ;
#124 = CIRCLE ( 'NONE', #167, 0.05000000000000002400 ) ;
#125 = DIRECTION ( 'NONE',  ( 1.000000000000000000, 0.0000000000000000000, -8.673617379884036700E-017 ) ) ;
#126 = CARTESIAN_POINT ( 'NONE',  ( 0.9499999999999995100, 0.6999999999999999600, 0.6249999999999996700 ) ) ;
#127 = DIRECTION ( 'NONE',  ( 1.000000000000000000, -0.0000000000000000000, 0.0000000000000000000 ) ) ;
#128 = ORIENTED_EDGE ( 'NONE', *, *, #478, .T. ) ;
#129 = EDGE_LOOP ( 'NONE', ( #509, #1238, #747, #283 ) ) ;
#130 = ORIENTED_EDGE ( 'NONE', *, *, #652, .F. ) ;
#131 = CARTESIAN_POINT ( 'NONE',  ( 0.9999999999999995600, 0.05000000000000002400, 0.6249999999999996700 ) ) ;
#132 = ORIENTED_EDGE ( 'NONE', *, *, #953, .F. ) ;
#133 = DIRECTION ( 'NONE',  ( 0.0000000000000000000, 1.000000000000000000, 0.0000000000000000000 ) ) ;
#134 = DIRECTION ( 'NONE',  ( 0.0000000000000000000, 0.0000000000000000000, -1.000000000000000000 ) ) ;
#135 = EDGE_CURVE ( 'NONE', #19, #1275, #663, .T. ) ;
#136 = AXIS2_PLACEMENT_3D ( 'NONE', #535, #156, #835 ) ;
#137 = VECTOR ( 'NONE', #532, 1000.000000000000000 ) ;
#138 = LINE ( 'NONE', #1228, #1037 ) ;
#139 = CARTESIAN_POINT ( 'NONE',  ( 500000.0000000000600, 0.7333333333333333900, -0.5750000000433678200 ) ) ;
#140 = CARTESIAN_POINT ( 'NONE',  ( 0.4999999999881765700, 0.7333333333333333900, -0.5749999999999997300 ) ) ;
#141 = EDGE_CURVE ( 'NONE', #864, #881, #761, .T. ) ;
#142 = VERTEX_POINT ( 'NONE', #850 ) ;
#143 = DIRECTION ( 'NONE',  ( 1.000000000000000000, 0.0000000000000000000, 0.0000000000000000000 ) ) ;
#144 = ORIENTED_EDGE ( 'NONE', *, *, #657, .T. ) ;
#145 = DIRECTION ( 'NONE',  ( 0.0000000000000000000, -1.000000000000000000, 0.0000000000000000000 ) ) ;
#146 = DIRECTION ( 'NONE',  ( 1.000000000000000000, 0.0000000000000000000, 0.0000000000000000000 ) ) ;
#147 = CARTESIAN_POINT ( 'NONE',  ( 0.4999999999881765700, 0.01666666666666666600, 0.5749999998698956900 ) ) ;
#148 = DIRECTION ( 'NONE',  ( 3.469446951953615200E-016, -0.0000000000000000000, -1.000000000000000000 ) ) ;
#149 = PLANE ( 'NONE',  #957 ) ;
#150 = MECHANICAL_DESIGN_GEOMETRIC_PRESENTATION_REPRESENTATION (  '', ( #954 ), #577 ) ;
#151 = VECTOR ( 'NONE', #960, 1000.000000000000000 ) ;
#152 = VECTOR ( 'NONE', #200, 1000.000000000000000 ) ;
#153 = SURFACE_STYLE_USAGE ( .BOTH. , #915 ) ;
#154 = ORIENTED_EDGE ( 'NONE', *, *, #489, .T. ) ;
#155 = DIRECTION ( 'NONE',  ( -1.000000000000000000, -0.0000000000000000000, 8.673617379884036700E-017 ) ) ;
#156 = DIRECTION ( 'NONE',  ( 1.000000000000000000, 0.0000000000000000000, -8.673617379884036700E-017 ) ) ;
#157 = ORIENTED_EDGE ( 'NONE', *, *, #1204, .F. ) ;
#158 = EDGE_CURVE ( 'NONE', #1174, #1192, #887, .T. ) ;
#159 = CARTESIAN_POINT ( 'NONE',  ( -0.4999999999999996700, 0.05000000000000002400, 0.5749999999999997300 ) ) ;
#160 = ORIENTED_EDGE ( 'NONE', *, *, #798, .F. ) ;
#161 = VERTEX_POINT ( 'NONE', #348 ) ;
#162 = CARTESIAN_POINT ( 'NONE',  ( -0.9499999999999999600, 0.6999999999999999600, -0.5749999999999998400 ) ) ;
#163 = EDGE_CURVE ( 'NONE', #1104, #219, #304, .T. ) ;
#164 = CARTESIAN_POINT ( 'NONE',  ( 0.9499999999999999600, 0.6999999999999999600, -0.5749999999999998400 ) ) ;
#165 = STYLED_ITEM ( 'NONE', ( #14 ), #446 ) ;
#166 = LINE ( 'NONE', #813, #506 ) ;
#167 = AXIS2_PLACEMENT_3D ( 'NONE', #396, #1094, #1014 ) ;
#168 = DIRECTION ( 'NONE',  ( 1.000000000000000000, 0.0000000000000000000, -8.673617379884036700E-017 ) ) ;
#169 = DIRECTION ( 'NONE',  ( 3.469446951953615200E-016, 0.0000000000000000000, -1.000000000000000000 ) ) ;
#170 = ADVANCED_FACE ( 'NONE', ( #1203 ), #868, .F. ) ;
#171 = CYLINDRICAL_SURFACE ( 'NONE', #632, 0.05000000000000002400 ) ;
#172 = ORIENTED_EDGE ( 'NONE', *, *, #670, .T. ) ;
#173 = DIRECTION ( 'NONE',  ( 0.0000000000000000000, 0.0000000000000000000, 1.000000000000000000 ) ) ;
#174 = ORIENTED_EDGE ( 'NONE', *, *, #1032, .F. ) ;
#175 = DIRECTION ( 'NONE',  ( -1.000000000000000000, 0.0000000000000000000, 0.0000000000000000000 ) ) ;
#176 = ORIENTED_EDGE ( 'NONE', *, *, #880, .T. ) ;
#177 = EDGE_CURVE ( 'NONE', #292, #1101, #877, .T. ) ;
#178 = DIRECTION ( 'NONE',  ( 0.0000000000000000000, 0.0000000000000000000, 1.000000000000000000 ) ) ;
#179 = DIRECTION ( 'NONE',  ( 0.0000000000000000000, -1.000000000000000000, -0.0000000000000000000 ) ) ;
#180 = CARTESIAN_POINT ( 'NONE',  ( -0.9499999999999995100, 0.6999999999999999600, 0.5749999999999996200 ) ) ;
#181 = AXIS2_PLACEMENT_3D ( 'NONE', #1056, #468, #584 ) ;
#182 = DIRECTION ( 'NONE',  ( 1.000000000000000000, 0.0000000000000000000, 0.0000000000000000000 ) ) ;
#183 = ADVANCED_FACE ( 'NONE', ( #17 ), #101, .T. ) ;
#184 = CYLINDRICAL_SURFACE ( 'NONE', #948, 0.03333333333333334700 ) ;
#185 = DIRECTION ( 'NONE',  ( -1.000000000000000000, -0.0000000000000000000, 8.673617379884036700E-017 ) ) ;
#186 = CARTESIAN_POINT ( 'NONE',  ( 0.4999999999999997800, 0.6999999999999999600, -0.6249999999999998900 ) ) ;
#187 = CYLINDRICAL_SURFACE ( 'NONE', #513, 0.05000000000000002400 ) ;
#188 = VECTOR ( 'NONE', #310, 1000.000000000000000 ) ;
#189 = CIRCLE ( 'NONE', #35, 0.03333333333333334700 ) ;
#190 = AXIS2_PLACEMENT_3D ( 'NONE', #209, #493, #598 ) ;
#191 = ORIENTED_EDGE ( 'NONE', *, *, #932, .F. ) ;
#192 = FILL_AREA_STYLE_COLOUR ( '', #521 ) ;
#193 = VERTEX_POINT ( 'NONE', #1111 ) ;
#194 = EDGE_LOOP ( 'NONE', ( #604, #709, #369, #930 ) ) ;
#195 = EDGE_CURVE ( 'NONE', #323, #1160, #46, .T. ) ;
#196 = EDGE_LOOP ( 'NONE', ( #398, #730, #886, #1128 ) ) ;
#197 = CARTESIAN_POINT ( 'NONE',  ( -0.9999999999999995600, 0.7500000000000000000, 0.6249999999999996700 ) ) ;
#198 = DIRECTION ( 'NONE',  ( 0.0000000000000000000, -1.000000000000000000, -0.0000000000000000000 ) ) ;
#199 = EDGE_CURVE ( 'NONE', #1160, #161, #576, .T. ) ;
#200 = DIRECTION ( 'NONE',  ( -3.469446951953615200E-016, 0.0000000000000000000, -1.000000000000000000 ) ) ;
#201 = AXIS2_PLACEMENT_3D ( 'NONE', #180, #175, #59 ) ;
#202 = VERTEX_POINT ( 'NONE', #405 ) ;
#203 = VECTOR ( 'NONE', #227, 1000.000000000000000 ) ;
#204 = DIRECTION ( 'NONE',  ( 0.0000000000000000000, 0.0000000000000000000, -1.000000000000000000 ) ) ;
#205 = ORIENTED_EDGE ( 'NONE', *, *, #195, .F. ) ;
#206 = DIRECTION ( 'NONE',  ( 1.000000000000000000, 0.0000000000000000000, 1.734723475976807600E-016 ) ) ;
#207 = EDGE_CURVE ( 'NONE', #397, #1142, #962, .T. ) ;
#208 = APPLICATION_CONTEXT ( 'automotive_design' ) ;
#209 = CARTESIAN_POINT ( 'NONE',  ( 0.9499999999999999600, 0.6999999999999999600, -0.5749999999999998400 ) ) ;
#210 = COLOUR_RGB ( '',0.7921568627450980000, 0.8196078431372548800, 0.9333333333333333500 ) ;
#211 = FACE_OUTER_BOUND ( 'NONE', #713, .T. ) ;
#212 = CIRCLE ( 'NONE', #827, 0.05000000000000002400 ) ;
#213 = FACE_OUTER_BOUND ( 'NONE', #305, .T. ) ;
#214 = DIRECTION ( 'NONE',  ( 0.0000000000000000000, 0.0000000000000000000, 1.000000000000000000 ) ) ;
#215 = ORIENTED_EDGE ( 'NONE', *, *, #641, .F. ) ;
#216 = SPHERICAL_SURFACE ( 'NONE', #250, 0.05000000000000000300 ) ;
#217 = AXIS2_PLACEMENT_3D ( 'NONE', #1025, #1016, #43 ) ;
#218 = ORIENTED_EDGE ( 'NONE', *, *, #736, .F. ) ;
#219 = VERTEX_POINT ( 'NONE', #399 ) ;
#220 = EDGE_LOOP ( 'NONE', ( #591, #1219, #128, #116 ) ) ;
#221 = VERTEX_POINT ( 'NONE', #796 ) ;
#222 = CARTESIAN_POINT ( 'NONE',  ( 0.0000000000000000000, 0.0000000000000000000, -0.5749999999999998400 ) ) ;
#223 = PRODUCT ( 'CL21B223KBANNNC', 'CL21B223KBANNNC', '', ( #698 ) ) ;
#224 = EDGE_CURVE ( 'NONE', #1086, #1088, #823, .T. ) ;
#225 = CARTESIAN_POINT ( 'NONE',  ( -0.4999999999999996700, 0.01666666666666666600, -0.5749999999999996200 ) ) ;
#226 = VECTOR ( 'NONE', #562, 1000.000000000000000 ) ;
#227 = DIRECTION ( 'NONE',  ( 3.469446951953615200E-016, -0.0000000000000000000, 1.000000000000000000 ) ) ;
#228 = LINE ( 'NONE', #147, #693 ) ;
#229 = VERTEX_POINT ( 'NONE', #1019 ) ;
#230 = ORIENTED_EDGE ( 'NONE', *, *, #1005, .F. ) ;
#231 = DIRECTION ( 'NONE',  ( -0.0000000000000000000, 1.000000000000000000, -0.0000000000000000000 ) ) ;
#232 = EDGE_LOOP ( 'NONE', ( #630, #1202, #63 ) ) ;
#233 = DIRECTION ( 'NONE',  ( 0.0000000000000000000, -0.0000000000000000000, 1.000000000000000000 ) ) ;
#234 = ADVANCED_FACE ( 'NONE', ( #615 ), #839, .T. ) ;
#235 = EDGE_CURVE ( 'NONE', #1157, #1085, #992, .T. ) ;
#236 = SURFACE_SIDE_STYLE ('',( #1102 ) ) ;
#237 = FILL_AREA_STYLE_COLOUR ( '', #1115 ) ;
#238 = PLANE ( 'NONE',  #1193 ) ;
#239 = DIRECTION ( 'NONE',  ( 0.0000000000000000000, -1.000000000000000000, 0.0000000000000000000 ) ) ;
#240 = MANIFOLD_SOLID_BREP ( 'Fillet1', #87 ) ;
#241 = ORIENTED_EDGE ( 'NONE', *, *, #966, .T. ) ;
#242 =( LENGTH_UNIT ( ) NAMED_UNIT ( * ) SI_UNIT ( .MILLI., .METRE. ) );
#243 = VECTOR ( 'NONE', #326, 1000.000000000000000 ) ;
#244 = EDGE_LOOP ( 'NONE', ( #379, #661, #1074, #580 ) ) ;
#245 = CIRCLE ( 'NONE', #450, 0.05000000000000002400 ) ;
#246 = MECHANICAL_DESIGN_GEOMETRIC_PRESENTATION_REPRESENTATION (  '', ( #165 ), #10 ) ;
#247 = ORIENTED_EDGE ( 'NONE', *, *, #1214, .T. ) ;
#248 = DIRECTION ( 'NONE',  ( 0.0000000000000000000, 0.0000000000000000000, 1.000000000000000000 ) ) ;
#249 = EDGE_CURVE ( 'NONE', #843, #789, #1237, .T. ) ;
#250 = AXIS2_PLACEMENT_3D ( 'NONE', #1224, #714, #143 ) ;
#251 = AXIS2_PLACEMENT_3D ( 'NONE', #993, #1091, #233 ) ;
#252 = PLANE ( 'NONE',  #28 ) ;
#253 = VECTOR ( 'NONE', #198, 1000.000000000000000 ) ;
#254 = CARTESIAN_POINT ( 'NONE',  ( 0.0000000000000000000, 0.0000000000000000000, 0.5749999999999996200 ) ) ;
#255 = ORIENTED_EDGE ( 'NONE', *, *, #583, .F. ) ;
#256 = ORIENTED_EDGE ( 'NONE', *, *, #311, .F. ) ;
#257 = CARTESIAN_POINT ( 'NONE',  ( 0.9499999999999999600, 0.05000000000000000300, -0.5749999999999998400 ) ) ;
#258 = CARTESIAN_POINT ( 'NONE',  ( 0.4999999999999997800, 0.0000000000000000000, -0.5749999999999998400 ) ) ;
#259 = VERTEX_POINT ( 'NONE', #39 ) ;
#260 = ADVANCED_FACE ( 'NONE', ( #472 ), #216, .T. ) ;
#261 = CARTESIAN_POINT ( 'NONE',  ( -0.9499999999999999600, 0.6999999999999999600, -0.5749999999999998400 ) ) ;
#262 = AXIS2_PLACEMENT_3D ( 'NONE', #1108, #537, #182 ) ;
#263 = DIRECTION ( 'NONE',  ( 0.0000000000000000000, 1.000000000000000000, 0.0000000000000000000 ) ) ;
#264 = CARTESIAN_POINT ( 'NONE',  ( 0.0000000000000000000, 0.7500000000000000000, 0.0000000000000000000 ) ) ;
#265 = SURFACE_STYLE_USAGE ( .BOTH. , #1169 ) ;
#266 = DIRECTION ( 'NONE',  ( -8.673617379884036700E-017, 0.0000000000000000000, -1.000000000000000000 ) ) ;
#267 = CYLINDRICAL_SURFACE ( 'NONE', #262, 0.05000000000000002400 ) ;
#268 = LINE ( 'NONE', #461, #1267 ) ;
#269 = AXIS2_PLACEMENT_3D ( 'NONE', #639, #168, #631 ) ;
#270 = DIRECTION ( 'NONE',  ( 0.0000000000000000000, 1.000000000000000000, 0.0000000000000000000 ) ) ;
#271 = ORIENTED_EDGE ( 'NONE', *, *, #387, .F. ) ;
#272 = ADVANCED_FACE ( 'NONE', ( #1024 ), #675, .T. ) ;
#273 = EDGE_CURVE ( 'NONE', #1085, #1275, #695, .T. ) ;
#274 = ORIENTED_EDGE ( 'NONE', *, *, #141, .T. ) ;
#275 = ORIENTED_EDGE ( 'NONE', *, *, #587, .T. ) ;
#276 = DIRECTION ( 'NONE',  ( -1.000000000000000000, -0.0000000000000000000, -0.0000000000000000000 ) ) ;
#277 = CIRCLE ( 'NONE', #1067, 0.03333333333333334700 ) ;
#278 = CARTESIAN_POINT ( 'NONE',  ( 500000.0000000000600, 0.01666666666666666600, -0.5750000000433677100 ) ) ;
#279 = LINE ( 'NONE', #557, #27 ) ;
#280 = ADVANCED_FACE ( 'NONE', ( #1252 ), #885, .T. ) ;
#281 = VECTOR ( 'NONE', #1175, 1000.000000000000000 ) ;
#282 = CARTESIAN_POINT ( 'NONE',  ( 0.0000000000000000000, 0.0000000000000000000, 0.5749999999999996200 ) ) ;
#283 = ORIENTED_EDGE ( 'NONE', *, *, #107, .F. ) ;
#284 = ORIENTED_EDGE ( 'NONE', *, *, #163, .F. ) ;
#285 = EDGE_LOOP ( 'NONE', ( #1124, #1225, #944, #172, #1260, #605, #866, #999 ) ) ;
#286 = CYLINDRICAL_SURFACE ( 'NONE', #181, 0.05000000000000002400 ) ;
#287 = AXIS2_PLACEMENT_3D ( 'NONE', #257, #851, #1132 ) ;
#288 = CARTESIAN_POINT ( 'NONE',  ( 0.9499999999999999600, 0.6999999999999999600, -0.5749999999999998400 ) ) ;
#289 =( LENGTH_UNIT ( ) NAMED_UNIT ( * ) SI_UNIT ( .MILLI., .METRE. ) );
#290 = AXIS2_PLACEMENT_3D ( 'NONE', #261, #67, #545 ) ;
#291 = FACE_OUTER_BOUND ( 'NONE', #804, .T. ) ;
#292 = VERTEX_POINT ( 'NONE', #715 ) ;
#293 = VECTOR ( 'NONE', #847, 1000.000000000000000 ) ;
#294 = ORIENTED_EDGE ( 'NONE', *, *, #462, .F. ) ;
#295 = FACE_OUTER_BOUND ( 'NONE', #1270, .T. ) ;
#296 = ORIENTED_EDGE ( 'NONE', *, *, #1116, .T. ) ;
#297 = DIRECTION ( 'NONE',  ( 0.0000000000000000000, 0.0000000000000000000, -1.000000000000000000 ) ) ;
#298 = EDGE_CURVE ( 'NONE', #1190, #861, #228, .T. ) ;
#299 = CIRCLE ( 'NONE', #515, 0.03333333333333334700 ) ;
#300 = FACE_OUTER_BOUND ( 'NONE', #194, .T. ) ;
#301 = EDGE_CURVE ( 'NONE', #193, #495, #429, .T. ) ;
#302 = CARTESIAN_POINT ( 'NONE',  ( -0.9499999999999995100, 0.6999999999999999600, 0.6249999999999996700 ) ) ;
#303 = CIRCLE ( 'NONE', #1046, 0.05000000000000002400 ) ;
#304 = LINE ( 'NONE', #254, #1061 ) ;
#305 = EDGE_LOOP ( 'NONE', ( #1272, #1119, #1012, #1015 ) ) ;
#306 = ORIENTED_EDGE ( 'NONE', *, *, #529, .F. ) ;
#307 = DIRECTION ( 'NONE',  ( 0.0000000000000000000, -0.0000000000000000000, 1.000000000000000000 ) ) ;
#308 = ORIENTED_EDGE ( 'NONE', *, *, #793, .T. ) ;
#309 = ORIENTED_EDGE ( 'NONE', *, *, #327, .F. ) ;
#310 = DIRECTION ( 'NONE',  ( -1.000000000000000000, 0.0000000000000000000, 0.0000000000000000000 ) ) ;
#311 = EDGE_CURVE ( 'NONE', #381, #338, #974, .T. ) ;
#312 = EDGE_CURVE ( 'NONE', #20, #864, #910, .T. ) ;
#313 = PLANE ( 'NONE',  #251 ) ;
#314 = DIRECTION ( 'NONE',  ( -1.000000000000000000, 0.0000000000000000000, 0.0000000000000000000 ) ) ;
#315 = ADVANCED_FACE ( 'NONE', ( #613 ), #1246, .T. ) ;
#316 = CARTESIAN_POINT ( 'NONE',  ( -0.9999999999999995600, 0.05000000000000002400, 0.5749999999999996200 ) ) ;
#317 = EDGE_LOOP ( 'NONE', ( #174, #1259, #929, #255 ) ) ;
#318 = VECTOR ( 'NONE', #79, 1000.000000000000000 ) ;
#319 = ADVANCED_FACE ( 'NONE', ( #1118 ), #820, .T. ) ;
#320 = CARTESIAN_POINT ( 'NONE',  ( 0.0000000000000000000, 0.6999999999999999600, 0.5749999999999996200 ) ) ;
#321 = ORIENTED_EDGE ( 'NONE', *, *, #449, .T. ) ;
#322 = AXIS2_PLACEMENT_3D ( 'NONE', #2, #590, #204 ) ;
#323 = VERTEX_POINT ( 'NONE', #1236 ) ;
#324 = CARTESIAN_POINT ( 'NONE',  ( -1.000000000000000000, 0.7500000000000000000, -0.5749999999999998400 ) ) ;
#325 = ORIENTED_EDGE ( 'NONE', *, *, #387, .T. ) ;
#326 = DIRECTION ( 'NONE',  ( 0.0000000000000000000, -1.000000000000000000, -0.0000000000000000000 ) ) ;
#327 = EDGE_CURVE ( 'NONE', #1192, #900, #189, .T. ) ;
#328 = CARTESIAN_POINT ( 'NONE',  ( 0.9499999999999995100, 0.7500000000000000000, 0.5749999999999996200 ) ) ;
#329 = FACE_OUTER_BOUND ( 'NONE', #497, .T. ) ;
#330 = CARTESIAN_POINT ( 'NONE',  ( -0.4999999999999997800, 0.0000000000000000000, -0.5749999999999998400 ) ) ;
#331 = ORIENTED_EDGE ( 'NONE', *, *, #603, .F. ) ;
#332 = VECTOR ( 'NONE', #127, 1000.000000000000000 ) ;
#333 = EDGE_LOOP ( 'NONE', ( #649, #230, #160, #256 ) ) ;
#334 = CIRCLE ( 'NONE', #69, 0.05000000000000002400 ) ;
#335 = CARTESIAN_POINT ( 'NONE',  ( 0.0000000000000000000, 0.0000000000000000000, 0.0000000000000000000 ) ) ;
#336 = ORIENTED_EDGE ( 'NONE', *, *, #726, .T. ) ;
#337 = DIRECTION ( 'NONE',  ( 0.0000000000000000000, 0.0000000000000000000, -1.000000000000000000 ) ) ;
#338 = VERTEX_POINT ( 'NONE', #1033 ) ;
#339 = DIRECTION ( 'NONE',  ( -1.734723475976807600E-016, -0.0000000000000000000, -1.000000000000000000 ) ) ;
#340 = DIRECTION ( 'NONE',  ( 1.000000000000000000, 0.0000000000000000000, -8.673617379884036700E-017 ) ) ;
#341 = CARTESIAN_POINT ( 'NONE',  ( 0.4999999999999997800, 0.7500000000000000000, -0.5749999999999998400 ) ) ;
#342 = ADVANCED_FACE ( 'NONE', ( #291 ), #707, .T. ) ;
#343 = CARTESIAN_POINT ( 'NONE',  ( 500000.0000000000600, 0.7333333333333333900, -0.5750000000433678200 ) ) ;
#344 = DIRECTION ( 'NONE',  ( 0.0000000000000000000, -1.000000000000000000, 0.0000000000000000000 ) ) ;
#345 = UNCERTAINTY_MEASURE_WITH_UNIT (LENGTH_MEASURE( 1.000000000000000100E-005 ), #460, 'distance_accuracy_value', 'NONE');
#346 = FACE_OUTER_BOUND ( 'NONE', #1222, .T. ) ;
#347 = CARTESIAN_POINT ( 'NONE',  ( 0.4999999999881765700, 0.6999999999999999600, -0.5749999999999997300 ) ) ;
#348 = CARTESIAN_POINT ( 'NONE',  ( -0.4999999999999995600, 0.0000000000000000000, 0.5749999999999997300 ) ) ;
#349 = VECTOR ( 'NONE', #70, 1000.000000000000000 ) ;
#350 = CARTESIAN_POINT ( 'NONE',  ( -0.9499999999999995100, 0.7500000000000000000, 0.6249999999999996700 ) ) ;
#351 = ORIENTED_EDGE ( 'NONE', *, *, #80, .F. ) ;
#352 = CIRCLE ( 'NONE', #201, 0.05000000000000002400 ) ;
#353 = DIRECTION ( 'NONE',  ( -0.0000000000000000000, -1.000000000000000000, -0.0000000000000000000 ) ) ;
#354 = ORIENTED_EDGE ( 'NONE', *, *, #932, .T. ) ;
#355 = ORIENTED_EDGE ( 'NONE', *, *, #575, .T. ) ;
#356 = CARTESIAN_POINT ( 'NONE',  ( 0.4999999999881765700, 0.05000000000000002400, -0.5749999999999997300 ) ) ;
#357 = VERTEX_POINT ( 'NONE', #1242 ) ;
#358 = CARTESIAN_POINT ( 'NONE',  ( 500000.0000000000600, 0.05000000000000002400, -0.5750000000433678200 ) ) ;
#359 = DIRECTION ( 'NONE',  ( -3.469446951953615200E-016, 0.0000000000000000000, 1.000000000000000000 ) ) ;
#360 = AXIS2_PLACEMENT_3D ( 'NONE', #1076, #373, #668 ) ;
#361 = LINE ( 'NONE', #417, #1054 ) ;
#362 = LINE ( 'NONE', #102, #1136 ) ;
#363 = LINE ( 'NONE', #1131, #837 ) ;
#364 = EDGE_CURVE ( 'NONE', #888, #142, #938, .T. ) ;
#365 = CARTESIAN_POINT ( 'NONE',  ( -0.9499999999999995100, 0.05000000000000000300, 0.5749999999999996200 ) ) ;
#366 = CLOSED_SHELL ( 'NONE', ( #1070, #951, #902, #853, #1147, #811, #1167, #1263, #716, #766 ) ) ;
#367 = PLANE ( 'NONE',  #547 ) ;
#368 = EDGE_CURVE ( 'NONE', #142, #381, #1022, .T. ) ;
#369 = ORIENTED_EDGE ( 'NONE', *, *, #909, .T. ) ;
#370 = ORIENTED_EDGE ( 'NONE', *, *, #1, .F. ) ;
#371 = DIRECTION ( 'NONE',  ( 0.0000000000000000000, 0.0000000000000000000, 1.000000000000000000 ) ) ;
#372 = LINE ( 'NONE', #865, #871 ) ;
#373 = DIRECTION ( 'NONE',  ( -1.000000000000000000, -0.0000000000000000000, 8.673617379884036700E-017 ) ) ;
#374 = VECTOR ( 'NONE', #1008, 1000.000000000000000 ) ;
#375 = CARTESIAN_POINT ( 'NONE',  ( -0.9499999999999999600, 0.7500000000000000000, -0.6249999999999998900 ) ) ;
#376 = DIRECTION ( 'NONE',  ( 0.0000000000000000000, 0.0000000000000000000, 1.000000000000000000 ) ) ;
#377 = ORIENTED_EDGE ( 'NONE', *, *, #983, .F. ) ;
#378 = VECTOR ( 'NONE', #841, 1000.000000000000000 ) ;
#379 = ORIENTED_EDGE ( 'NONE', *, *, #882, .T. ) ;
#380 = EDGE_CURVE ( 'NONE', #1086, #789, #44, .T. ) ;
#381 = VERTEX_POINT ( 'NONE', #933 ) ;
#382 = AXIS2_PLACEMENT_3D ( 'NONE', #1266, #178, #475 ) ;
#383 = CARTESIAN_POINT ( 'NONE',  ( -1.000000000000000000, 0.05000000000000002400, -0.5749999999999998400 ) ) ;
#384 = CARTESIAN_POINT ( 'NONE',  ( -0.9499999999999995100, 0.7500000000000000000, 0.5749999999999996200 ) ) ;
#385 = DIRECTION ( 'NONE',  ( -1.000000000000000000, 0.0000000000000000000, 0.0000000000000000000 ) ) ;
#386 = APPLICATION_PROTOCOL_DEFINITION ( 'draft international standard', 'automotive_design', 1998, #208 ) ;
#387 = EDGE_CURVE ( 'NONE', #292, #1045, #410, .T. ) ;
#388 = FACE_OUTER_BOUND ( 'NONE', #845, .T. ) ;
#389 = CIRCLE ( 'NONE', #440, 0.03333333333333334700 ) ;
#390 = CARTESIAN_POINT ( 'NONE',  ( 0.4999999999999997800, 0.7500000000000000000, -0.6249999999999998900 ) ) ;
#391 = FILL_AREA_STYLE ('',( #1279 ) ) ;
#392 = CARTESIAN_POINT ( 'NONE',  ( -1.000000000000000000, 0.05000000000000002400, -0.5749999999999998400 ) ) ;
#393 = CARTESIAN_POINT ( 'NONE',  ( 0.4999999999999995600, 0.0000000000000000000, 0.5749999999999997300 ) ) ;
#394 = ORIENTED_EDGE ( 'NONE', *, *, #55, .F. ) ;
#395 = VECTOR ( 'NONE', #1227, 1000.000000000000000 ) ;
#396 = CARTESIAN_POINT ( 'NONE',  ( 0.9499999999999999600, 0.05000000000000002400, -0.5749999999999998400 ) ) ;
#397 = VERTEX_POINT ( 'NONE', #1048 ) ;
#398 = ORIENTED_EDGE ( 'NONE', *, *, #1155, .F. ) ;
#399 = CARTESIAN_POINT ( 'NONE',  ( 0.9499999999999995100, 0.0000000000000000000, 0.5749999999999996200 ) ) ;
#400 = EDGE_LOOP ( 'NONE', ( #23, #106, #862, #354 ) ) ;
#401 = DIRECTION ( 'NONE',  ( -1.000000000000000000, 0.0000000000000000000, 0.0000000000000000000 ) ) ;
#402 = EDGE_CURVE ( 'NONE', #523, #357, #3, .T. ) ;
#403 = CARTESIAN_POINT ( 'NONE',  ( -0.4999999999999996700, 0.6999999999999999600, 0.6083333333333331700 ) ) ;
#404 = DIRECTION ( 'NONE',  ( 0.0000000000000000000, 0.0000000000000000000, 1.000000000000000000 ) ) ;
#405 = CARTESIAN_POINT ( 'NONE',  ( -0.9999999999999995600, 0.6999999999999999600, 0.5749999999999996200 ) ) ;
#406 = CIRCLE ( 'NONE', #217, 0.03333333333333334700 ) ;
#407 = AXIS2_PLACEMENT_3D ( 'NONE', #722, #822, #607 ) ;
#408 = ADVANCED_FACE ( 'NONE', ( #989 ), #171, .T. ) ;
#409 = CARTESIAN_POINT ( 'NONE',  ( 0.9999999999999995600, 0.05000000000000002400, 0.5749999999999996200 ) ) ;
#410 = CIRCLE ( 'NONE', #505, 0.05000000000000002400 ) ;
#411 = ORIENTED_EDGE ( 'NONE', *, *, #542, .T. ) ;
#412 = ORIENTED_EDGE ( 'NONE', *, *, #438, .F. ) ;
#413 = DIRECTION ( 'NONE',  ( 1.000000000000000000, 0.0000000000000000000, 0.0000000000000000000 ) ) ;
#414 = CARTESIAN_POINT ( 'NONE',  ( 1.000000000000000000, 0.6999999999999999600, -0.6249999999999998900 ) ) ;
#415 = EDGE_CURVE ( 'NONE', #861, #484, #743, .T. ) ;
#416 = DIRECTION ( 'NONE',  ( 0.0000000000000000000, 0.0000000000000000000, -1.000000000000000000 ) ) ;
#417 = CARTESIAN_POINT ( 'NONE',  ( 1.000000000000000000, 0.05000000000000002400, -0.6249999999999998900 ) ) ;
#418 = PRESENTATION_LAYER_ASSIGNMENT (  '', '', ( #165 ) ) ;
#419 = FILL_AREA_STYLE ('',( #237 ) ) ;
#420 = DIRECTION ( 'NONE',  ( 0.0000000000000000000, -1.000000000000000000, 0.0000000000000000000 ) ) ;
#421 = DIRECTION ( 'NONE',  ( 0.0000000000000000000, -1.000000000000000000, 0.0000000000000000000 ) ) ;
#422 = AXIS2_PLACEMENT_3D ( 'NONE', #660, #376, #1082 ) ;
#423 = FACE_OUTER_BOUND ( 'NONE', #667, .T. ) ;
#424 = PLANE ( 'NONE',  #500 ) ;
#425 = VECTOR ( 'NONE', #561, 1000.000000000000000 ) ;
#426 =( NAMED_UNIT ( * ) PLANE_ANGLE_UNIT ( ) SI_UNIT ( $, .RADIAN. ) );
#427 = LINE ( 'NONE', #510, #907 ) ;
#428 = DIRECTION ( 'NONE',  ( 0.0000000000000000000, 1.000000000000000000, 0.0000000000000000000 ) ) ;
#429 = CIRCLE ( 'NONE', #1251, 0.05000000000000002400 ) ;
#430 = ORIENTED_EDGE ( 'NONE', *, *, #1005, .T. ) ;
#431 = VECTOR ( 'NONE', #1020, 1000.000000000000000 ) ;
#432 = CARTESIAN_POINT ( 'NONE',  ( 500000.0000000000600, 0.6999999999999999600, -0.5750000000433678200 ) ) ;
#433 = ORIENTED_EDGE ( 'NONE', *, *, #749, .T. ) ;
#434 = FACE_OUTER_BOUND ( 'NONE', #731, .T. ) ;
#435 = CARTESIAN_POINT ( 'NONE',  ( -0.4999999999999995600, 0.7500000000000000000, 0.5749999999999996200 ) ) ;
#436 = ORIENTED_EDGE ( 'NONE', *, *, #953, .T. ) ;
#437 = EDGE_LOOP ( 'NONE', ( #325, #582, #1044, #875 ) ) ;
#438 = EDGE_CURVE ( 'NONE', #843, #66, #784, .T. ) ;
#439 = DIRECTION ( 'NONE',  ( 0.0000000000000000000, 0.0000000000000000000, 1.000000000000000000 ) ) ;
#440 = AXIS2_PLACEMENT_3D ( 'NONE', #356, #860, #741 ) ;
#441 = DIRECTION ( 'NONE',  ( -0.0000000000000000000, 1.000000000000000000, -0.0000000000000000000 ) ) ;
#442 = CARTESIAN_POINT ( 'NONE',  ( 0.4999999999881765700, 0.05000000000000002400, 0.6083333333333331700 ) ) ;
#443 = DIRECTION ( 'NONE',  ( 1.000000000000000000, 0.0000000000000000000, 1.734723475976807600E-016 ) ) ;
#444 = CIRCLE ( 'NONE', #123, 0.05000000000000002400 ) ;
#445 = PRODUCT_DEFINITION_SHAPE ( 'NONE', 'NONE',  #492 ) ;
#446 = MANIFOLD_SOLID_BREP ( 'Mirror2', #1090 ) ;
#447 = ADVANCED_FACE ( 'NONE', ( #469 ), #659, .T. ) ;
#448 = FACE_OUTER_BOUND ( 'NONE', #244, .T. ) ;
#449 = EDGE_CURVE ( 'NONE', #523, #926, #452, .T. ) ;
#450 = AXIS2_PLACEMENT_3D ( 'NONE', #541, #720, #248 ) ;
#451 = CARTESIAN_POINT ( 'NONE',  ( 0.0000000000000000000, 0.6999999999999999600, 0.5749999999999996200 ) ) ;
#452 = CIRCLE ( 'NONE', #750, 0.05000000000000002400 ) ;
#453 = VERTEX_POINT ( 'NONE', #90 ) ;
#454 = ORIENTED_EDGE ( 'NONE', *, *, #1, .T. ) ;
#455 = ORIENTED_EDGE ( 'NONE', *, *, #364, .T. ) ;
#456 = DIRECTION ( 'NONE',  ( -1.000000000000000000, -0.0000000000000000000, -0.0000000000000000000 ) ) ;
#457 = ADVANCED_FACE ( 'NONE', ( #213 ), #82, .F. ) ;
#458 = AXIS2_PLACEMENT_3D ( 'NONE', #673, #206, #687 ) ;
#459 = ORIENTED_EDGE ( 'NONE', *, *, #657, .F. ) ;
#460 =( LENGTH_UNIT ( ) NAMED_UNIT ( * ) SI_UNIT ( .MILLI., .METRE. ) );
#461 = CARTESIAN_POINT ( 'NONE',  ( -1.000000000000000000, 0.6999999999999999600, -0.6249999999999998900 ) ) ;
#462 = EDGE_CURVE ( 'NONE', #20, #1106, #544, .T. ) ;
#463 = CIRCLE ( 'NONE', #981, 0.05000000000000002400 ) ;
#464 = DIRECTION ( 'NONE',  ( -1.000000000000000000, -0.0000000000000000000, 8.673617379884036700E-017 ) ) ;
#465 = CARTESIAN_POINT ( 'NONE',  ( 0.9499999999999997300, 0.6999999999999999600, 3.295974604355933500E-016 ) ) ;
#466 = CIRCLE ( 'NONE', #611, 0.05000000000000002400 ) ;
#467 = CARTESIAN_POINT ( 'NONE',  ( 0.4999999999999995600, 0.6999999999999999600, 0.5749999999999996200 ) ) ;
#468 = DIRECTION ( 'NONE',  ( 1.000000000000000000, -0.0000000000000000000, 0.0000000000000000000 ) ) ;
#469 = FACE_OUTER_BOUND ( 'NONE', #844, .T. ) ;
#470 = ORIENTED_EDGE ( 'NONE', *, *, #895, .F. ) ;
#471 = ADVANCED_FACE ( 'NONE', ( #1234 ), #959, .T. ) ;
#472 = FACE_OUTER_BOUND ( 'NONE', #564, .T. ) ;
#473 = ORIENTED_EDGE ( 'NONE', *, *, #819, .F. ) ;
#474 = ORIENTED_EDGE ( 'NONE', *, *, #478, .F. ) ;
#475 = DIRECTION ( 'NONE',  ( -1.000000000000000000, 0.0000000000000000000, 0.0000000000000000000 ) ) ;
#476 = DIRECTION ( 'NONE',  ( 0.0000000000000000000, 1.000000000000000000, 0.0000000000000000000 ) ) ;
#477 = EDGE_CURVE ( 'NONE', #453, #1101, #770, .T. ) ;
#478 = EDGE_CURVE ( 'NONE', #66, #947, #508, .T. ) ;
#479 = CYLINDRICAL_SURFACE ( 'NONE', #778, 0.05000000000000002400 ) ;
#480 = DIRECTION ( 'NONE',  ( -0.0000000000000000000, 0.0000000000000000000, -1.000000000000000000 ) ) ;
#481 = CARTESIAN_POINT ( 'NONE',  ( -0.9499999999999999600, 0.6999999999999999600, -0.6249999999999998900 ) ) ;
#482 = ORIENTED_EDGE ( 'NONE', *, *, #1165, .T. ) ;
#483 = DIRECTION ( 'NONE',  ( -3.469446951953615200E-016, -0.0000000000000000000, -1.000000000000000000 ) ) ;
#484 = VERTEX_POINT ( 'NONE', #225 ) ;
#485 = AXIS2_PLACEMENT_3D ( 'NONE', #848, #428, #536 ) ;
#486 = ORIENTED_EDGE ( 'NONE', *, *, #199, .F. ) ;
#487 = UNCERTAINTY_MEASURE_WITH_UNIT (LENGTH_MEASURE( 1.000000000000000100E-005 ), #289, 'distance_accuracy_value', 'NONE');
#488 = DIRECTION ( 'NONE',  ( 0.0000000000000000000, 0.0000000000000000000, 1.000000000000000000 ) ) ;
#489 = EDGE_CURVE ( 'NONE', #665, #806, #674, .T. ) ;
#490 = CARTESIAN_POINT ( 'NONE',  ( 0.4999999999881765700, 0.01666666666666666600, -0.5749999999999996200 ) ) ;
#491 = FACE_OUTER_BOUND ( 'NONE', #1068, .T. ) ;
#492 = PRODUCT_DEFINITION ( 'UNKNOWN', '', #829, #94 ) ;
#493 = DIRECTION ( 'NONE',  ( -1.000000000000000000, -0.0000000000000000000, -0.0000000000000000000 ) ) ;
#494 = EDGE_LOOP ( 'NONE', ( #774, #728, #132, #967, #568, #336, #31, #699 ) ) ;
#495 = VERTEX_POINT ( 'NONE', #1000 ) ;
#496 = LINE ( 'NONE', #901, #203 ) ;
#497 = EDGE_LOOP ( 'NONE', ( #294, #100, #274, #1188 ) ) ;
#498 = EDGE_LOOP ( 'NONE', ( #679, #144, #247, #994 ) ) ;
#499 = DIRECTION ( 'NONE',  ( 1.000000000000000000, 0.0000000000000000000, 0.0000000000000000000 ) ) ;
#500 = AXIS2_PLACEMENT_3D ( 'NONE', #335, #633, #1152 ) ;
#501 = CARTESIAN_POINT ( 'NONE',  ( 0.4999999999999997800, 0.6999999999999999600, -0.6249999999999998900 ) ) ;
#502 = DIRECTION ( 'NONE',  ( -1.000000000000000000, 0.0000000000000000000, 0.0000000000000000000 ) ) ;
#503 = EDGE_CURVE ( 'NONE', #357, #947, #1097, .T. ) ;
#504 = VECTOR ( 'NONE', #413, 1000.000000000000000 ) ;
#505 = AXIS2_PLACEMENT_3D ( 'NONE', #162, #1144, #549 ) ;
#506 = VECTOR ( 'NONE', #155, 1000.000000000000000 ) ;
#507 = CARTESIAN_POINT ( 'NONE',  ( 0.4999999999881765700, 0.05000000000000003100, -0.6083333333333331700 ) ) ;
#508 = LINE ( 'NONE', #785, #253 ) ;
#509 = ORIENTED_EDGE ( 'NONE', *, *, #625, .F. ) ;
#510 = CARTESIAN_POINT ( 'NONE',  ( 0.9999999999999995600, 0.7500000000000000000, 0.5749999999999997300 ) ) ;
#511 = ORIENTED_EDGE ( 'NONE', *, *, #842, .T. ) ;
#512 = AXIS2_PLACEMENT_3D ( 'NONE', #465, #169, #635 ) ;
#513 = AXIS2_PLACEMENT_3D ( 'NONE', #1113, #923, #314 ) ;
#514 = CARTESIAN_POINT ( 'NONE',  ( -0.9499999999999999600, 0.0000000000000000000, -0.5749999999999998400 ) ) ;
#515 = AXIS2_PLACEMENT_3D ( 'NONE', #1250, #623, #49 ) ;
#516 = CARTESIAN_POINT ( 'NONE',  ( 0.9499999999999999600, 0.6999999999999999600, -0.5749999999999998400 ) ) ;
#517 = DIRECTION ( 'NONE',  ( -3.469446951953615200E-016, 0.0000000000000000000, 1.000000000000000000 ) ) ;
#518 = CYLINDRICAL_SURFACE ( 'NONE', #815, 0.03333333333333334700 ) ;
#519 = DIRECTION ( 'NONE',  ( -0.0000000000000000000, -1.000000000000000000, -0.0000000000000000000 ) ) ;
#520 =( NAMED_UNIT ( * ) SI_UNIT ( $, .STERADIAN. ) SOLID_ANGLE_UNIT ( ) );
#521 = COLOUR_RGB ( '',0.7921568627450980000, 0.8196078431372548800, 0.9333333333333333500 ) ;
#522 = AXIS2_PLACEMENT_3D ( 'NONE', #890, #110, #792 ) ;
#523 = VERTEX_POINT ( 'NONE', #126 ) ;
#524 = DIRECTION ( 'NONE',  ( -1.000000000000000000, 0.0000000000000000000, 0.0000000000000000000 ) ) ;
#525 = ORIENTED_EDGE ( 'NONE', *, *, #158, .F. ) ;
#526 = ORIENTED_EDGE ( 'NONE', *, *, #793, .F. ) ;
#527 = DIRECTION ( 'NONE',  ( 1.000000000000000000, 0.0000000000000000000, 0.0000000000000000000 ) ) ;
#528 = CARTESIAN_POINT ( 'NONE',  ( 0.4999999999999995600, 0.6999999999999999600, 0.6249999999999996700 ) ) ;
#529 = EDGE_CURVE ( 'NONE', #1141, #926, #782, .T. ) ;
#530 = ORIENTED_EDGE ( 'NONE', *, *, #249, .F. ) ;
#531 = DIRECTION ( 'NONE',  ( 0.0000000000000000000, 1.000000000000000000, 0.0000000000000000000 ) ) ;
#532 = DIRECTION ( 'NONE',  ( 1.734723475976807600E-016, -0.0000000000000000000, -1.000000000000000000 ) ) ;
#533 = AXIS2_PLACEMENT_3D ( 'NONE', #1028, #705, #612 ) ;
#534 = CARTESIAN_POINT ( 'NONE',  ( 0.4999999999881765700, 0.6999999999999999600, 0.6083333333333331700 ) ) ;
#535 = CARTESIAN_POINT ( 'NONE',  ( -0.4999999999999996700, 0.6999999999999999600, -0.5749999999999997300 ) ) ;
#536 = DIRECTION ( 'NONE',  ( 1.000000000000000000, 0.0000000000000000000, 0.0000000000000000000 ) ) ;
#537 = DIRECTION ( 'NONE',  ( 3.469446951953615200E-016, -0.0000000000000000000, 1.000000000000000000 ) ) ;
#538 = CARTESIAN_POINT ( 'NONE',  ( -0.4999999999999996700, 0.6999999999999999600, -0.5749999999999997300 ) ) ;
#539 = VECTOR ( 'NONE', #1166, 1000.000000000000000 ) ;
#540 = DIRECTION ( 'NONE',  ( 0.0000000000000000000, 0.0000000000000000000, -1.000000000000000000 ) ) ;
#541 = CARTESIAN_POINT ( 'NONE',  ( -0.4999999999999997800, 0.6999999999999999600, -0.5749999999999998400 ) ) ;
#542 = EDGE_CURVE ( 'NONE', #1179, #323, #756, .T. ) ;
#543 = AXIS2_PLACEMENT_3D ( 'NONE', #390, #795, #1197 ) ;
#544 = LINE ( 'NONE', #85, #281 ) ;
#545 = DIRECTION ( 'NONE',  ( -1.000000000000000000, 0.0000000000000000000, 0.0000000000000000000 ) ) ;
#546 = ORIENTED_EDGE ( 'NONE', *, *, #1080, .T. ) ;
#547 = AXIS2_PLACEMENT_3D ( 'NONE', #197, #581, #972 ) ;
#548 = EDGE_LOOP ( 'NONE', ( #977, #284, #482, #105 ) ) ;
#549 = DIRECTION ( 'NONE',  ( 0.0000000000000000000, 0.0000000000000000000, 1.000000000000000000 ) ) ;
#550 = ORIENTED_EDGE ( 'NONE', *, *, #849, .F. ) ;
#551 = ORIENTED_EDGE ( 'NONE', *, *, #966, .F. ) ;
#552 = DIRECTION ( 'NONE',  ( 0.0000000000000000000, 0.0000000000000000000, 1.000000000000000000 ) ) ;
#553 = CARTESIAN_POINT ( 'NONE',  ( -0.9499999999999999600, 0.6999999999999999600, -0.5749999999999998400 ) ) ;
#554 = CARTESIAN_POINT ( 'NONE',  ( -0.4999999999999996700, 0.6999999999999999600, 0.6083333333333331700 ) ) ;
#555 = DIRECTION ( 'NONE',  ( -1.000000000000000000, 0.0000000000000000000, 0.0000000000000000000 ) ) ;
#556 = ADVANCED_FACE ( 'NONE', ( #12 ), #1212, .F. ) ;
#557 = CARTESIAN_POINT ( 'NONE',  ( 0.0000000000000000000, 0.0000000000000000000, -0.5749999999999998400 ) ) ;
#558 = CARTESIAN_POINT ( 'NONE',  ( 1.000000000000000000, 0.7500000000000000000, -0.5749999999999998400 ) ) ;
#559 = DIRECTION ( 'NONE',  ( 1.000000000000000000, 0.0000000000000000000, 0.0000000000000000000 ) ) ;
#560 = VECTOR ( 'NONE', #276, 1000.000000000000000 ) ;
#561 = DIRECTION ( 'NONE',  ( 1.000000000000000000, -0.0000000000000000000, -0.0000000000000000000 ) ) ;
#562 = DIRECTION ( 'NONE',  ( 0.0000000000000000000, -1.000000000000000000, 0.0000000000000000000 ) ) ;
#563 = AXIS2_PLACEMENT_3D ( 'NONE', #916, #421, #416 ) ;
#564 = EDGE_LOOP ( 'NONE', ( #618, #696, #271 ) ) ;
#565 = ORIENTED_EDGE ( 'NONE', *, *, #195, .T. ) ;
#566 = LINE ( 'NONE', #73, #1064 ) ;
#567 = AXIS2_PLACEMENT_3D ( 'NONE', #701, #133, #307 ) ;
#568 = ORIENTED_EDGE ( 'NONE', *, *, #368, .F. ) ;
#569 =( NAMED_UNIT ( * ) PLANE_ANGLE_UNIT ( ) SI_UNIT ( $, .RADIAN. ) );
#570 = EDGE_CURVE ( 'NONE', #202, #1142, #692, .T. ) ;
#571 = SURFACE_STYLE_FILL_AREA ( #391 ) ;
#572 = CIRCLE ( 'NONE', #969, 0.05000000000000002400 ) ;
#573 = DIRECTION ( 'NONE',  ( 0.0000000000000000000, 1.000000000000000000, 0.0000000000000000000 ) ) ;
#574 = VECTOR ( 'NONE', #441, 1000.000000000000000 ) ;
#575 = EDGE_CURVE ( 'NONE', #66, #523, #987, .T. ) ;
#576 = CIRCLE ( 'NONE', #702, 0.05000000000000002400 ) ;
#577 =( GEOMETRIC_REPRESENTATION_CONTEXT ( 3 ) GLOBAL_UNCERTAINTY_ASSIGNED_CONTEXT ( ( #593 ) ) GLOBAL_UNIT_ASSIGNED_CONTEXT ( ( #242, #32, #810 ) ) REPRESENTATION_CONTEXT ( 'NONE', 'WORKASPACE' ) );
#578 = ORIENTED_EDGE ( 'NONE', *, *, #301, .T. ) ;
#579 = ORIENTED_EDGE ( 'NONE', *, *, #909, .F. ) ;
#580 = ORIENTED_EDGE ( 'NONE', *, *, #503, .T. ) ;
#581 = DIRECTION ( 'NONE',  ( 0.0000000000000000000, 0.0000000000000000000, -1.000000000000000000 ) ) ;
#582 = ORIENTED_EDGE ( 'NONE', *, *, #870, .F. ) ;
#583 = EDGE_CURVE ( 'NONE', #229, #453, #739, .T. ) ;
#584 = DIRECTION ( 'NONE',  ( 0.0000000000000000000, 0.0000000000000000000, -1.000000000000000000 ) ) ;
#585 =( GEOMETRIC_REPRESENTATION_CONTEXT ( 3 ) GLOBAL_UNCERTAINTY_ASSIGNED_CONTEXT ( ( #1245 ) ) GLOBAL_UNIT_ASSIGNED_CONTEXT ( ( #732, #426, #520 ) ) REPRESENTATION_CONTEXT ( 'NONE', 'WORKASPACE' ) );
#586 = DIRECTION ( 'NONE',  ( 1.000000000000000000, 0.0000000000000000000, 0.0000000000000000000 ) ) ;
#587 = EDGE_CURVE ( 'NONE', #45, #1141, #427, .T. ) ;
#588 = ORIENTED_EDGE ( 'NONE', *, *, #477, .F. ) ;
#589 = CYLINDRICAL_SURFACE ( 'NONE', #512, 0.05000000000000002400 ) ;
#590 = DIRECTION ( 'NONE',  ( 0.0000000000000000000, -1.000000000000000000, 0.0000000000000000000 ) ) ;
#591 = ORIENTED_EDGE ( 'NONE', *, *, #402, .F. ) ;
#592 = VERTEX_POINT ( 'NONE', #316 ) ;
#593 = UNCERTAINTY_MEASURE_WITH_UNIT (LENGTH_MEASURE( 1.000000000000000100E-005 ), #242, 'distance_accuracy_value', 'NONE');
#594 = LINE ( 'NONE', #282, #1170 ) ;
#595 = FACE_OUTER_BOUND ( 'NONE', #964, .T. ) ;
#596 = CARTESIAN_POINT ( 'NONE',  ( 0.4999999999881765700, 0.7333333333333333900, 0.5749999999999997300 ) ) ;
#597 = CYLINDRICAL_SURFACE ( 'NONE', #1183, 0.03333333333333334700 ) ;
#598 = DIRECTION ( 'NONE',  ( 0.0000000000000000000, 0.0000000000000000000, 1.000000000000000000 ) ) ;
#599 = SURFACE_STYLE_USAGE ( .BOTH. , #121 ) ;
#600 = ORIENTED_EDGE ( 'NONE', *, *, #98, .T. ) ;
#601 = VECTOR ( 'NONE', #1052, 1000.000000000000000 ) ;
#602 = ORIENTED_EDGE ( 'NONE', *, *, #80, .T. ) ;
#603 = EDGE_CURVE ( 'NONE', #1207, #1088, #769, .T. ) ;
#604 = ORIENTED_EDGE ( 'NONE', *, *, #603, .T. ) ;
#605 = ORIENTED_EDGE ( 'NONE', *, *, #298, .T. ) ;
#606 = ADVANCED_FACE ( 'NONE', ( #1173 ), #187, .T. ) ;
#607 = DIRECTION ( 'NONE',  ( -1.000000000000000000, 0.0000000000000000000, 0.0000000000000000000 ) ) ;
#608 = CARTESIAN_POINT ( 'NONE',  ( -0.9499999999999999600, 0.05000000000000002400, -0.5749999999999998400 ) ) ;
#609 = DIRECTION ( 'NONE',  ( -1.000000000000000000, -0.0000000000000000000, 8.673617379884036700E-017 ) ) ;
#610 = DIRECTION ( 'NONE',  ( 0.0000000000000000000, -1.000000000000000000, 0.0000000000000000000 ) ) ;
#611 = AXIS2_PLACEMENT_3D ( 'NONE', #903, #1112, #1110 ) ;
#612 = DIRECTION ( 'NONE',  ( 0.0000000000000000000, 0.0000000000000000000, -1.000000000000000000 ) ) ;
#613 = FACE_OUTER_BOUND ( 'NONE', #64, .T. ) ;
#614 = EDGE_LOOP ( 'NONE', ( #157, #473, #1140, #191 ) ) ;
#615 = FACE_OUTER_BOUND ( 'NONE', #232, .T. ) ;
#616 = DIRECTION ( 'NONE',  ( 0.0000000000000000000, 0.0000000000000000000, -1.000000000000000000 ) ) ;
#617 = ORIENTED_EDGE ( 'NONE', *, *, #207, .F. ) ;
#618 = ORIENTED_EDGE ( 'NONE', *, *, #736, .T. ) ;
#619 = ORIENTED_EDGE ( 'NONE', *, *, #1059, .F. ) ;
#620 = CARTESIAN_POINT ( 'NONE',  ( 0.9499999999999997300, 0.0000000000000000000, 3.295974604355933500E-016 ) ) ;
#621 = DIRECTION ( 'NONE',  ( -0.0000000000000000000, 1.000000000000000000, -0.0000000000000000000 ) ) ;
#622 = AXIS2_PLACEMENT_3D ( 'NONE', #9, #480, #1182 ) ;
#623 = DIRECTION ( 'NONE',  ( 1.000000000000000000, 0.0000000000000000000, 1.734723475976807600E-016 ) ) ;
#624 = DIRECTION ( 'NONE',  ( 1.000000000000000000, -0.0000000000000000000, -1.734723475976807600E-016 ) ) ;
#625 = EDGE_CURVE ( 'NONE', #1141, #193, #706, .T. ) ;
#626 = CARTESIAN_POINT ( 'NONE',  ( -0.4999999999999995600, 0.05000000000000002400, 0.5749999999999996200 ) ) ;
#627 = EDGE_LOOP ( 'NONE', ( #34, #913, #648, #7 ) ) ;
#628 = PRESENTATION_STYLE_ASSIGNMENT (( #1107 ) ) ;
#629 = VERTEX_POINT ( 'NONE', #1226 ) ;
#630 = ORIENTED_EDGE ( 'NONE', *, *, #832, .F. ) ;
#631 = DIRECTION ( 'NONE',  ( 0.0000000000000000000, 0.0000000000000000000, -1.000000000000000000 ) ) ;
#632 = AXIS2_PLACEMENT_3D ( 'NONE', #451, #555, #74 ) ;
#633 = DIRECTION ( 'NONE',  ( 0.0000000000000000000, 1.000000000000000000, 0.0000000000000000000 ) ) ;
#634 = DIRECTION ( 'NONE',  ( 1.000000000000000000, 0.0000000000000000000, 1.734723475976807600E-016 ) ) ;
#635 = DIRECTION ( 'NONE',  ( 1.000000000000000000, 0.0000000000000000000, 3.469446951953615700E-016 ) ) ;
#636 = DIRECTION ( 'NONE',  ( 0.0000000000000000000, 0.0000000000000000000, 1.000000000000000000 ) ) ;
#637 = EDGE_CURVE ( 'NONE', #221, #1174, #166, .T. ) ;
#638 = CYLINDRICAL_SURFACE ( 'NONE', #760, 0.05000000000000002400 ) ;
#639 = CARTESIAN_POINT ( 'NONE',  ( -0.4999999999999996700, 0.6999999999999999600, 0.5749999999999997300 ) ) ;
#640 = SPHERICAL_SURFACE ( 'NONE', #685, 0.05000000000000000300 ) ;
#641 = EDGE_CURVE ( 'NONE', #161, #806, #138, .T. ) ;
#642 = DIRECTION ( 'NONE',  ( 1.000000000000000000, 0.0000000000000000000, -8.673617379884036700E-017 ) ) ;
#643 = DIRECTION ( 'NONE',  ( -0.0000000000000000000, -1.000000000000000000, -0.0000000000000000000 ) ) ;
#644 = VECTOR ( 'NONE', #339, 1000.000000000000000 ) ;
#645 = EDGE_LOOP ( 'NONE', ( #411, #1023, #879 ) ) ;
#646 = AXIS2_PLACEMENT_3D ( 'NONE', #753, #650, #77 ) ;
#647 = DIRECTION ( 'NONE',  ( -3.469446951953615200E-016, 0.0000000000000000000, -1.000000000000000000 ) ) ;
#648 = ORIENTED_EDGE ( 'NONE', *, *, #55, .T. ) ;
#649 = ORIENTED_EDGE ( 'NONE', *, *, #65, .F. ) ;
#650 = DIRECTION ( 'NONE',  ( -1.000000000000000000, 0.0000000000000000000, -3.469446951953615200E-016 ) ) ;
#651 = ORIENTED_EDGE ( 'NONE', *, *, #273, .F. ) ;
#652 = EDGE_CURVE ( 'NONE', #88, #1190, #406, .T. ) ;
#653 = CARTESIAN_POINT ( 'NONE',  ( -0.4999999999999995600, 0.7500000000000000000, 0.6249999999999996700 ) ) ;
#654 = AXIS2_PLACEMENT_3D ( 'NONE', #114, #978, #119 ) ;
#655 = DIRECTION ( 'NONE',  ( -1.000000000000000000, -0.0000000000000000000, -0.0000000000000000000 ) ) ;
#656 = CYLINDRICAL_SURFACE ( 'NONE', #856, 0.05000000000000002400 ) ;
#657 = EDGE_CURVE ( 'NONE', #1190, #900, #1073, .T. ) ;
#658 = LINE ( 'NONE', #534, #1200 ) ;
#659 = CYLINDRICAL_SURFACE ( 'NONE', #1130, 0.05000000000000002400 ) ;
#660 = CARTESIAN_POINT ( 'NONE',  ( 0.9499999999999995100, 0.05000000000000002400, 0.5749999999999996200 ) ) ;
#661 = ORIENTED_EDGE ( 'NONE', *, *, #163, .T. ) ;
#662 = ADVANCED_FACE ( 'NONE', ( #448 ), #479, .T. ) ;
#663 = LINE ( 'NONE', #1040, #293 ) ;
#664 = DIRECTION ( 'NONE',  ( 1.734723475976807600E-016, 0.0000000000000000000, 1.000000000000000000 ) ) ;
#665 = VERTEX_POINT ( 'NONE', #514 ) ;
#666 = ORIENTED_EDGE ( 'NONE', *, *, #637, .T. ) ;
#667 = EDGE_LOOP ( 'NONE', ( #436, #33, #775, #430 ) ) ;
#668 = DIRECTION ( 'NONE',  ( 0.0000000000000000000, 0.0000000000000000000, 1.000000000000000000 ) ) ;
#669 = ORIENTED_EDGE ( 'NONE', *, *, #1189, .F. ) ;
#670 = EDGE_CURVE ( 'NONE', #221, #88, #658, .T. ) ;
#671 = MANIFOLD_SOLID_BREP ( 'Boss-Extrude2', #366 ) ;
#672 = CARTESIAN_POINT ( 'NONE',  ( -0.4999999999999996700, 0.6999999999999999600, -0.6083333333333331700 ) ) ;
#673 = CARTESIAN_POINT ( 'NONE',  ( 0.4999999999999997800, 0.7500000000000000000, -0.6249999999999998900 ) ) ;
#674 = LINE ( 'NONE', #222, #374 ) ;
#675 = CYLINDRICAL_SURFACE ( 'NONE', #533, 0.05000000000000002400 ) ;
#676 = EDGE_LOOP ( 'NONE', ( #976, #355, #321, #546 ) ) ;
#677 = VECTOR ( 'NONE', #710, 1000.000000000000000 ) ;
#678 = EDGE_LOOP ( 'NONE', ( #50, #1026, #794, #651 ) ) ;
#679 = ORIENTED_EDGE ( 'NONE', *, *, #298, .F. ) ;
#680 = ORIENTED_EDGE ( 'NONE', *, *, #1165, .F. ) ;
#681 = DIRECTION ( 'NONE',  ( 1.000000000000000000, 0.0000000000000000000, 0.0000000000000000000 ) ) ;
#682 = AXIS2_PLACEMENT_3D ( 'NONE', #737, #443, #636 ) ;
#683 = CARTESIAN_POINT ( 'NONE',  ( 0.4999999999999997800, 0.7500000000000000000, -0.6249999999999998900 ) ) ;
#684 = APPLICATION_CONTEXT ( 'automotive_design' ) ;
#685 = AXIS2_PLACEMENT_3D ( 'NONE', #949, #1051, #1265 ) ;
#686 = PRESENTATION_STYLE_ASSIGNMENT (( #599 ) ) ;
#687 = DIRECTION ( 'NONE',  ( -1.734723475976807600E-016, 0.0000000000000000000, 1.000000000000000000 ) ) ;
#688 = AXIS2_PLACEMENT_3D ( 'NONE', #1004, #1211, #499 ) ;
#689 = CARTESIAN_POINT ( 'NONE',  ( -0.4999999999999996700, 0.7333333333333333900, -0.5749999999999997300 ) ) ;
#690 = VECTOR ( 'NONE', #742, 1000.000000000000000 ) ;
#691 = CARTESIAN_POINT ( 'NONE',  ( 0.9499999999999995100, 0.6999999999999999600, 0.5749999999999996200 ) ) ;
#692 = CIRCLE ( 'NONE', #25, 0.05000000000000002400 ) ;
#693 = VECTOR ( 'NONE', #1129, 1000.000000000000000 ) ;
#694 = EDGE_LOOP ( 'NONE', ( #120, #275, #700, #763 ) ) ;
#695 = LINE ( 'NONE', #1120, #395 ) ;
#696 = ORIENTED_EDGE ( 'NONE', *, *, #798, .T. ) ;
#697 = DIRECTION ( 'NONE',  ( -1.000000000000000000, 0.0000000000000000000, 0.0000000000000000000 ) ) ;
#698 = PRODUCT_CONTEXT ( 'NONE', #684, 'mechanical' ) ;
#699 = ORIENTED_EDGE ( 'NONE', *, *, #199, .T. ) ;
#700 = ORIENTED_EDGE ( 'NONE', *, *, #998, .T. ) ;
#701 = CARTESIAN_POINT ( 'NONE',  ( 500000.0000000000600, 0.01666666666666666600, 0.5749999999566317600 ) ) ;
#702 = AXIS2_PLACEMENT_3D ( 'NONE', #626, #1154, #1186 ) ;
#703 = CARTESIAN_POINT ( 'NONE',  ( -0.9499999999999995100, 0.6999999999999999600, 0.5749999999999996200 ) ) ;
#704 = CIRCLE ( 'NONE', #36, 0.05000000000000002400 ) ;
#705 = DIRECTION ( 'NONE',  ( 1.000000000000000000, 0.0000000000000000000, 0.0000000000000000000 ) ) ;
#706 = LINE ( 'NONE', #414, #97 ) ;
#707 = SPHERICAL_SURFACE ( 'NONE', #287, 0.05000000000000000300 ) ;
#708 = CARTESIAN_POINT ( 'NONE',  ( -0.9999999999999995600, 0.05000000000000002400, 0.6249999999999996700 ) ) ;
#709 = ORIENTED_EDGE ( 'NONE', *, *, #723, .T. ) ;
#710 = DIRECTION ( 'NONE',  ( -0.0000000000000000000, 1.000000000000000000, 0.0000000000000000000 ) ) ;
#711 = AXIS2_PLACEMENT_3D ( 'NONE', #320, #146, #52 ) ;
#712 = ORIENTED_EDGE ( 'NONE', *, *, #364, .F. ) ;
#713 = EDGE_LOOP ( 'NONE', ( #1027, #154, #215, #744 ) ) ;
#714 = DIRECTION ( 'NONE',  ( 0.0000000000000000000, 1.000000000000000000, 0.0000000000000000000 ) ) ;
#715 = CARTESIAN_POINT ( 'NONE',  ( -1.000000000000000000, 0.6999999999999999600, -0.5749999999999998400 ) ) ;
#716 = ADVANCED_FACE ( 'NONE', ( #329 ), #238, .F. ) ;
#717 = LINE ( 'NONE', #1133, #137 ) ;
#718 = FACE_OUTER_BOUND ( 'NONE', #678, .T. ) ;
#719 = CARTESIAN_POINT ( 'NONE',  ( 500000.0000000000600, 0.01666666666666667300, 0.5749999999566317600 ) ) ;
#720 = DIRECTION ( 'NONE',  ( 1.000000000000000000, -0.0000000000000000000, -1.734723475976807600E-016 ) ) ;
#721 = VECTOR ( 'NONE', #1217, 1000.000000000000000 ) ;
#722 = CARTESIAN_POINT ( 'NONE',  ( 0.9499999999999995100, 0.05000000000000000300, 0.5749999999999996200 ) ) ;
#723 = EDGE_CURVE ( 'NONE', #1088, #629, #363, .T. ) ;
#724 = ORIENTED_EDGE ( 'NONE', *, *, #882, .F. ) ;
#725 = CARTESIAN_POINT ( 'NONE',  ( -0.4999999999999996700, 0.05000000000000002400, -0.6083333333333331700 ) ) ;
#726 = EDGE_CURVE ( 'NONE', #142, #397, #1139, .T. ) ;
#727 = ORIENTED_EDGE ( 'NONE', *, *, #107, .T. ) ;
#728 = ORIENTED_EDGE ( 'NONE', *, *, #1032, .T. ) ;
#729 = CARTESIAN_POINT ( 'NONE',  ( 0.0000000000000000000, 0.7500000000000000000, 0.0000000000000000000 ) ) ;
#730 = ORIENTED_EDGE ( 'NONE', *, *, #1181, .T. ) ;
#731 = EDGE_LOOP ( 'NONE', ( #306, #1241, #176, #602 ) ) ;
#732 =( LENGTH_UNIT ( ) NAMED_UNIT ( * ) SI_UNIT ( .MILLI., .METRE. ) );
#733 = DIRECTION ( 'NONE',  ( 0.0000000000000000000, 0.0000000000000000000, 1.000000000000000000 ) ) ;
#734 = DIRECTION ( 'NONE',  ( 1.000000000000000000, 0.0000000000000000000, 0.0000000000000000000 ) ) ;
#735 = DIRECTION ( 'NONE',  ( 0.0000000000000000000, -0.0000000000000000000, 1.000000000000000000 ) ) ;
#736 = EDGE_CURVE ( 'NONE', #292, #338, #1280, .T. ) ;
#737 = CARTESIAN_POINT ( 'NONE',  ( 0.4999999999999997800, 0.6999999999999999600, -0.5749999999999998400 ) ) ;
#738 = LINE ( 'NONE', #917, #504 ) ;
#739 = LINE ( 'NONE', #30, #894 ) ;
#740 = AXIS2_PLACEMENT_3D ( 'NONE', #828, #1018, #51 ) ;
#741 = DIRECTION ( 'NONE',  ( 0.0000000000000000000, 0.0000000000000000000, -1.000000000000000000 ) ) ;
#742 = DIRECTION ( 'NONE',  ( -1.000000000000000000, -0.0000000000000000000, 8.673617379884036700E-017 ) ) ;
#743 = LINE ( 'NONE', #278, #115 ) ;
#744 = ORIENTED_EDGE ( 'NONE', *, *, #1223, .T. ) ;
#745 = ADVANCED_FACE ( 'NONE', ( #1185 ), #640, .T. ) ;
#746 = FACE_OUTER_BOUND ( 'NONE', #694, .T. ) ;
#747 = ORIENTED_EDGE ( 'NONE', *, *, #1138, .F. ) ;
#748 = CARTESIAN_POINT ( 'NONE',  ( 0.9999999999999995600, 0.7500000000000000000, 0.6249999999999996700 ) ) ;
#749 = EDGE_CURVE ( 'NONE', #629, #1163, #212, .T. ) ;
#750 = AXIS2_PLACEMENT_3D ( 'NONE', #950, #655, #95 ) ;
#751 = CARTESIAN_POINT ( 'NONE',  ( -0.4999999999999997800, 0.05000000000000002400, -0.5749999999999998400 ) ) ;
#752 = ADVANCED_FACE ( 'NONE', ( #958 ), #149, .F. ) ;
#753 = CARTESIAN_POINT ( 'NONE',  ( 1.000000000000000000, 0.7500000000000000000, -0.6249999999999998900 ) ) ;
#754 = EDGE_CURVE ( 'NONE', #629, #495, #1216, .T. ) ;
#755 = LINE ( 'NONE', #1218, #768 ) ;
#756 = CIRCLE ( 'NONE', #1178, 0.05000000000000002400 ) ;
#757 = CARTESIAN_POINT ( 'NONE',  ( -0.4999999999999997800, 0.6999999999999999600, -0.6249999999999998900 ) ) ;
#758 = DIRECTION ( 'NONE',  ( -3.469446951953615200E-016, 0.0000000000000000000, -1.000000000000000000 ) ) ;
#759 = ORIENTED_EDGE ( 'NONE', *, *, #1229, .T. ) ;
#760 = AXIS2_PLACEMENT_3D ( 'NONE', #893, #15, #297 ) ;
#761 = LINE ( 'NONE', #934, #378 ) ;
#762 = CARTESIAN_POINT ( 'NONE',  ( 500000.0000000000600, 0.7333333333333333900, 0.5749999999566316500 ) ) ;
#763 = ORIENTED_EDGE ( 'NONE', *, *, #402, .T. ) ;
#764 = ORIENTED_EDGE ( 'NONE', *, *, #311, .T. ) ;
#765 = ORIENTED_EDGE ( 'NONE', *, *, #970, .T. ) ;
#766 = ADVANCED_FACE ( 'NONE', ( #874 ), #597, .T. ) ;
#767 = AXIS2_PLACEMENT_3D ( 'NONE', #691, #404, #697 ) ;
#768 = VECTOR ( 'NONE', #609, 1000.000000000000000 ) ;
#769 = CIRCLE ( 'NONE', #740, 0.05000000000000002400 ) ;
#770 = CIRCLE ( 'NONE', #986, 0.05000000000000002400 ) ;
#771 = DIRECTION ( 'NONE',  ( -1.000000000000000000, 0.0000000000000000000, 1.734723475976807600E-016 ) ) ;
#772 = EDGE_LOOP ( 'NONE', ( #1240, #578, #470 ) ) ;
#773 = PLANE ( 'NONE',  #109 ) ;
#774 = ORIENTED_EDGE ( 'NONE', *, *, #641, .T. ) ;
#775 = ORIENTED_EDGE ( 'NONE', *, *, #870, .T. ) ;
#776 = EDGE_CURVE ( 'NONE', #1085, #20, #57, .T. ) ;
#777 = AXIS2_PLACEMENT_3D ( 'NONE', #1127, #239, #918 ) ;
#778 = AXIS2_PLACEMENT_3D ( 'NONE', #409, #818, #54 ) ;
#779 = LINE ( 'NONE', #653, #1134 ) ;
#780 = VECTOR ( 'NONE', #1187, 1000.000000000000000 ) ;
#781 = CARTESIAN_POINT ( 'NONE',  ( 0.4999999999881765700, 0.6999999999999999600, -0.6083333333333331700 ) ) ;
#782 = CIRCLE ( 'NONE', #767, 0.05000000000000002400 ) ;
#783 = CARTESIAN_POINT ( 'NONE',  ( 500000.0000000000600, 0.05000000000000003100, -0.6083333333767012600 ) ) ;
#784 = CIRCLE ( 'NONE', #1021, 0.05000000000000002400 ) ;
#785 = CARTESIAN_POINT ( 'NONE',  ( 0.4999999999999995600, 0.7500000000000000000, 0.6249999999999996700 ) ) ;
#786 = DIRECTION ( 'NONE',  ( -1.000000000000000000, -0.0000000000000000000, -0.0000000000000000000 ) ) ;
#787 = ORIENTED_EDGE ( 'NONE', *, *, #754, .T. ) ;
#788 = LINE ( 'NONE', #558, #318 ) ;
#789 = VERTEX_POINT ( 'NONE', #341 ) ;
#790 = AXIS2_PLACEMENT_3D ( 'NONE', #347, #634, #540 ) ;
#791 = VERTEX_POINT ( 'NONE', #840 ) ;
#792 = DIRECTION ( 'NONE',  ( 1.000000000000000000, 0.0000000000000000000, 0.0000000000000000000 ) ) ;
#793 = EDGE_CURVE ( 'NONE', #88, #1192, #936, .T. ) ;
#794 = ORIENTED_EDGE ( 'NONE', *, *, #135, .T. ) ;
#795 = DIRECTION ( 'NONE',  ( 1.000000000000000000, 0.0000000000000000000, 1.734723475976807600E-016 ) ) ;
#796 = CARTESIAN_POINT ( 'NONE',  ( 0.4999999999881765700, 0.6999999999999999600, 0.6083333333333331700 ) ) ;
#797 =( NAMED_UNIT ( * ) PLANE_ANGLE_UNIT ( ) SI_UNIT ( $, .RADIAN. ) );
#798 = EDGE_CURVE ( 'NONE', #338, #1045, #303, .T. ) ;
#799 = VECTOR ( 'NONE', #148, 1000.000000000000000 ) ;
#800 = CARTESIAN_POINT ( 'NONE',  ( 0.9499999999999995100, 0.7500000000000000000, 0.5749999999999996200 ) ) ;
#801 = DIRECTION ( 'NONE',  ( 0.0000000000000000000, 1.000000000000000000, -0.0000000000000000000 ) ) ;
#802 = EDGE_CURVE ( 'NONE', #881, #1174, #1096, .T. ) ;
#803 = ORIENTED_EDGE ( 'NONE', *, *, #931, .T. ) ;
#804 = EDGE_LOOP ( 'NONE', ( #579, #433, #942 ) ) ;
#805 = DIRECTION ( 'NONE',  ( -1.000000000000000000, 0.0000000000000000000, 0.0000000000000000000 ) ) ;
#806 = VERTEX_POINT ( 'NONE', #330 ) ;
#807 = ORIENTED_EDGE ( 'NONE', *, *, #1268, .F. ) ;
#808 = CARTESIAN_POINT ( 'NONE',  ( 0.9999999999999995600, 0.6999999999999999600, 0.6249999999999996700 ) ) ;
#809 = EDGE_CURVE ( 'NONE', #1047, #1207, #279, .T. ) ;
#810 =( NAMED_UNIT ( * ) SI_UNIT ( $, .STERADIAN. ) SOLID_ANGLE_UNIT ( ) );
#811 = ADVANCED_FACE ( 'NONE', ( #1233 ), #184, .T. ) ;
#812 = DIRECTION ( 'NONE',  ( -0.0000000000000000000, 1.000000000000000000, -0.0000000000000000000 ) ) ;
#813 = CARTESIAN_POINT ( 'NONE',  ( 500000.0000000000600, 0.6999999999999999600, 0.6083333332899650800 ) ) ;
#814 = FACE_OUTER_BOUND ( 'NONE', #47, .T. ) ;
#815 = AXIS2_PLACEMENT_3D ( 'NONE', #358, #464, #371 ) ;
#816 = DIRECTION ( 'NONE',  ( -1.000000000000000000, -0.0000000000000000000, -0.0000000000000000000 ) ) ;
#817 = FACE_OUTER_BOUND ( 'NONE', #86, .T. ) ;
#818 = DIRECTION ( 'NONE',  ( -1.000000000000000000, 0.0000000000000000000, 0.0000000000000000000 ) ) ;
#819 = EDGE_CURVE ( 'NONE', #1142, #323, #11, .T. ) ;
#820 = SPHERICAL_SURFACE ( 'NONE', #485, 0.05000000000000000300 ) ;
#821 = ORIENTED_EDGE ( 'NONE', *, *, #529, .T. ) ;
#822 = DIRECTION ( 'NONE',  ( 0.0000000000000000000, -1.000000000000000000, 0.0000000000000000000 ) ) ;
#823 = LINE ( 'NONE', #683, #243 ) ;
#824 = AXIS2_PLACEMENT_3D ( 'NONE', #264, #270, #735 ) ;
#825 = EDGE_LOOP ( 'NONE', ( #807, #765, #803, #22 ) ) ;
#826 = FACE_OUTER_BOUND ( 'NONE', #614, .T. ) ;
#827 = AXIS2_PLACEMENT_3D ( 'NONE', #72, #179, #1249 ) ;
#828 = CARTESIAN_POINT ( 'NONE',  ( 0.4999999999999997800, 0.05000000000000002400, -0.5749999999999998400 ) ) ;
#829 = PRODUCT_DEFINITION_FORMATION_WITH_SPECIFIED_SOURCE ( 'ANY', '', #223, .NOT_KNOWN. ) ;
#830 = DIRECTION ( 'NONE',  ( -8.673617379884036700E-017, 0.0000000000000000000, -1.000000000000000000 ) ) ;
#831 = DIRECTION ( 'NONE',  ( -1.000000000000000000, -0.0000000000000000000, 8.673617379884036700E-017 ) ) ;
#832 = EDGE_CURVE ( 'NONE', #219, #357, #1278, .T. ) ;
#833 = CIRCLE ( 'NONE', #622, 0.05000000000000002400 ) ;
#834 = FACE_OUTER_BOUND ( 'NONE', #548, .T. ) ;
#835 = DIRECTION ( 'NONE',  ( 0.0000000000000000000, 0.0000000000000000000, -1.000000000000000000 ) ) ;
#836 = AXIS2_PLACEMENT_3D ( 'NONE', #968, #476, #681 ) ;
#837 = VECTOR ( 'NONE', #527, 1000.000000000000000 ) ;
#838 = PLANE ( 'NONE',  #118 ) ;
#839 = SPHERICAL_SURFACE ( 'NONE', #407, 0.05000000000000000300 ) ;
#840 = CARTESIAN_POINT ( 'NONE',  ( -0.4999999999999997800, 0.6999999999999999600, -0.6249999999999998900 ) ) ;
#841 = DIRECTION ( 'NONE',  ( 0.0000000000000000000, 0.0000000000000000000, 1.000000000000000000 ) ) ;
#842 = EDGE_CURVE ( 'NONE', #1179, #592, #1093, .T. ) ;
#843 = VERTEX_POINT ( 'NONE', #1261 ) ;
#844 = EDGE_LOOP ( 'NONE', ( #759, #965, #218, #550 ) ) ;
#845 = EDGE_LOOP ( 'NONE', ( #511, #619, #370, #84 ) ) ;
#846 = PLANE ( 'NONE',  #646 ) ;
#847 = DIRECTION ( 'NONE',  ( 0.0000000000000000000, 1.000000000000000000, 0.0000000000000000000 ) ) ;
#848 = CARTESIAN_POINT ( 'NONE',  ( -0.9499999999999995100, 0.6999999999999999600, 0.5749999999999996200 ) ) ;
#849 = EDGE_CURVE ( 'NONE', #202, #292, #268, .T. ) ;
#850 = CARTESIAN_POINT ( 'NONE',  ( -0.4999999999999995600, 0.7500000000000000000, 0.5749999999999997300 ) ) ;
#851 = DIRECTION ( 'NONE',  ( 0.0000000000000000000, -1.000000000000000000, 0.0000000000000000000 ) ) ;
#852 = FACE_OUTER_BOUND ( 'NONE', #896, .T. ) ;
#853 = ADVANCED_FACE ( 'NONE', ( #491 ), #518, .T. ) ;
#854 = MECHANICAL_DESIGN_GEOMETRIC_PRESENTATION_REPRESENTATION (  '', ( #58 ), #585 ) ;
#855 = DIRECTION ( 'NONE',  ( 1.000000000000000000, -0.0000000000000000000, -1.734723475976807600E-016 ) ) ;
#856 = AXIS2_PLACEMENT_3D ( 'NONE', #1038, #1159, #173 ) ;
#857 = CARTESIAN_POINT ( 'NONE',  ( -0.9499999999999997300, 0.6999999999999999600, 3.295974604355933500E-016 ) ) ;
#858 = DIRECTION ( 'NONE',  ( -1.000000000000000000, 0.0000000000000000000, 8.673617379884036700E-017 ) ) ;
#859 = ORIENTED_EDGE ( 'NONE', *, *, #1007, .F. ) ;
#860 = DIRECTION ( 'NONE',  ( 1.000000000000000000, 0.0000000000000000000, 1.734723475976807600E-016 ) ) ;
#861 = VERTEX_POINT ( 'NONE', #490 ) ;
#862 = ORIENTED_EDGE ( 'NONE', *, *, #1059, .T. ) ;
#863 = DIRECTION ( 'NONE',  ( -1.000000000000000000, -0.0000000000000000000, 8.673617379884036700E-017 ) ) ;
#864 = VERTEX_POINT ( 'NONE', #689 ) ;
#865 = CARTESIAN_POINT ( 'NONE',  ( -0.4999999999999996700, 0.01666666666666666600, 0.5749999999999998400 ) ) ;
#866 = ORIENTED_EDGE ( 'NONE', *, *, #1007, .T. ) ;
#867 = CARTESIAN_POINT ( 'NONE',  ( -1.000000000000000000, 0.05000000000000002400, -0.6249999999999998900 ) ) ;
#868 = PLANE ( 'NONE',  #1089 ) ;
#869 = FILL_AREA_STYLE ('',( #192 ) ) ;
#870 = EDGE_CURVE ( 'NONE', #453, #1045, #1199, .T. ) ;
#871 = VECTOR ( 'NONE', #1069, 1000.000000000000000 ) ;
#872 = LINE ( 'NONE', #757, #425 ) ;
#873 =( NAMED_UNIT ( * ) SI_UNIT ( $, .STERADIAN. ) SOLID_ANGLE_UNIT ( ) );
#874 = FACE_OUTER_BOUND ( 'NONE', #627, .T. ) ;
#875 = ORIENTED_EDGE ( 'NONE', *, *, #177, .F. ) ;
#876 = ADVANCED_FACE ( 'NONE', ( #81 ), #921, .T. ) ;
#877 = LINE ( 'NONE', #940, #601 ) ;
#878 = ORIENTED_EDGE ( 'NONE', *, *, #141, .F. ) ;
#879 = ORIENTED_EDGE ( 'NONE', *, *, #842, .F. ) ;
#880 = EDGE_CURVE ( 'NONE', #193, #259, #704, .T. ) ;
#881 = VERTEX_POINT ( 'NONE', #973 ) ;
#882 = EDGE_CURVE ( 'NONE', #947, #1104, #1248, .T. ) ;
#883 = DIRECTION ( 'NONE',  ( 0.0000000000000000000, 0.0000000000000000000, 1.000000000000000000 ) ) ;
#884 = PRESENTATION_STYLE_ASSIGNMENT (( #153 ) ) ;
#885 = CYLINDRICAL_SURFACE ( 'NONE', #563, 0.05000000000000002400 ) ;
#886 = ORIENTED_EDGE ( 'NONE', *, *, #802, .T. ) ;
#887 = LINE ( 'NONE', #554, #1271 ) ;
#888 = VERTEX_POINT ( 'NONE', #384 ) ;
#889 = CARTESIAN_POINT ( 'NONE',  ( 0.4999999999999997800, 0.05000000000000002400, -0.6249999999999998900 ) ) ;
#890 = CARTESIAN_POINT ( 'NONE',  ( -0.9499999999999995100, 0.05000000000000002400, 0.5749999999999996200 ) ) ;
#891 = DIRECTION ( 'NONE',  ( 8.673617379884036700E-017, -0.0000000000000000000, 1.000000000000000000 ) ) ;
#892 =( NAMED_UNIT ( * ) SI_UNIT ( $, .STERADIAN. ) SOLID_ANGLE_UNIT ( ) );
#893 = CARTESIAN_POINT ( 'NONE',  ( 0.0000000000000000000, 0.6999999999999999600, -0.5749999999999998400 ) ) ;
#894 = VECTOR ( 'NONE', #805, 1000.000000000000000 ) ;
#895 = EDGE_CURVE ( 'NONE', #259, #495, #984, .T. ) ;
#896 = EDGE_LOOP ( 'NONE', ( #486, #205, #16, #1103 ) ) ;
#897 = ORIENTED_EDGE ( 'NONE', *, *, #380, .T. ) ;
#898 = CIRCLE ( 'NONE', #1264, 0.05000000000000002400 ) ;
#899 = DIRECTION ( 'NONE',  ( 0.0000000000000000000, 0.0000000000000000000, 1.000000000000000000 ) ) ;
#900 = VERTEX_POINT ( 'NONE', #1081 ) ;
#901 = CARTESIAN_POINT ( 'NONE',  ( -0.9499999999999995100, 0.7500000000000000000, 0.6249999999999996700 ) ) ;
#902 = ADVANCED_FACE ( 'NONE', ( #718 ), #773, .F. ) ;
#903 = CARTESIAN_POINT ( 'NONE',  ( 0.9499999999999999600, 0.05000000000000000300, -0.5749999999999998400 ) ) ;
#904 = DIRECTION ( 'NONE',  ( 0.0000000000000000000, 0.0000000000000000000, 1.000000000000000000 ) ) ;
#905 = FILL_AREA_STYLE ('',( #1231 ) ) ;
#906 = CARTESIAN_POINT ( 'NONE',  ( -0.9999999999999995600, 0.7500000000000000000, 0.5749999999999997300 ) ) ;
#907 = VECTOR ( 'NONE', #231, 1000.000000000000000 ) ;
#908 = CARTESIAN_POINT ( 'NONE',  ( -0.9999999999999995600, 0.6999999999999999600, 0.6249999999999996700 ) ) ;
#909 = EDGE_CURVE ( 'NONE', #629, #1047, #124, .T. ) ;
#910 = LINE ( 'NONE', #343, #349 ) ;
#911 = ORIENTED_EDGE ( 'NONE', *, *, #449, .F. ) ;
#912 = DIRECTION ( 'NONE',  ( -1.734723475976807600E-016, -0.0000000000000000000, -1.000000000000000000 ) ) ;
#913 = ORIENTED_EDGE ( 'NONE', *, *, #273, .T. ) ;
#914 = DIRECTION ( 'NONE',  ( 1.000000000000000000, 0.0000000000000000000, -8.673617379884036700E-017 ) ) ;
#915 = SURFACE_SIDE_STYLE ('',( #922 ) ) ;
#916 = CARTESIAN_POINT ( 'NONE',  ( 0.9499999999999999600, 0.7500000000000000000, -0.5749999999999998400 ) ) ;
#917 = CARTESIAN_POINT ( 'NONE',  ( 1.000000000000000000, 0.7500000000000000000, -0.5749999999999998400 ) ) ;
#918 = DIRECTION ( 'NONE',  ( 0.0000000000000000000, 0.0000000000000000000, -1.000000000000000000 ) ) ;
#919 = CARTESIAN_POINT ( 'NONE',  ( 0.4999999999999997800, 0.7500000000000000000, -0.6249999999999998900 ) ) ;
#920 = CARTESIAN_POINT ( 'NONE',  ( -0.4999999999999995600, 0.05000000000000002400, 0.6249999999999996700 ) ) ;
#921 = CYLINDRICAL_SURFACE ( 'NONE', #322, 0.05000000000000002400 ) ;
#922 = SURFACE_STYLE_FILL_AREA ( #419 ) ;
#923 = DIRECTION ( 'NONE',  ( -3.469446951953615200E-016, 0.0000000000000000000, 1.000000000000000000 ) ) ;
#924 = CARTESIAN_POINT ( 'NONE',  ( 0.9499999999999995100, 0.05000000000000002400, 0.5749999999999996200 ) ) ;
#925 = SURFACE_STYLE_FILL_AREA ( #869 ) ;
#926 = VERTEX_POINT ( 'NONE', #800 ) ;
#927 = ORIENTED_EDGE ( 'NONE', *, *, #726, .F. ) ;
#928 = CYLINDRICAL_SURFACE ( 'NONE', #777, 0.05000000000000002400 ) ;
#929 = ORIENTED_EDGE ( 'NONE', *, *, #1116, .F. ) ;
#930 = ORIENTED_EDGE ( 'NONE', *, *, #809, .T. ) ;
#931 = EDGE_CURVE ( 'NONE', #1047, #1163, #466, .T. ) ;
#932 = EDGE_CURVE ( 'NONE', #592, #202, #1083, .T. ) ;
#933 = CARTESIAN_POINT ( 'NONE',  ( -0.4999999999999997800, 0.7500000000000000000, -0.5749999999999998400 ) ) ;
#934 = CARTESIAN_POINT ( 'NONE',  ( -0.4999999999999996700, 0.7333333333333333900, -0.5749999999999997300 ) ) ;
#935 = AXIS2_PLACEMENT_3D ( 'NONE', #1191, #488, #112 ) ;
#936 = LINE ( 'NONE', #1034, #690 ) ;
#937 = DIRECTION ( 'NONE',  ( 1.000000000000000000, -0.0000000000000000000, 0.0000000000000000000 ) ) ;
#938 = LINE ( 'NONE', #435, #1009 ) ;
#939 = DIRECTION ( 'NONE',  ( 0.0000000000000000000, 0.0000000000000000000, 1.000000000000000000 ) ) ;
#940 = CARTESIAN_POINT ( 'NONE',  ( -1.000000000000000000, 0.7500000000000000000, -0.5749999999999998400 ) ) ;
#941 = EDGE_CURVE ( 'NONE', #1157, #19, #755, .T. ) ;
#942 = ORIENTED_EDGE ( 'NONE', *, *, #931, .F. ) ;
#943 = ADVANCED_FACE ( 'NONE', ( #211 ), #313, .F. ) ;
#944 = ORIENTED_EDGE ( 'NONE', *, *, #1155, .T. ) ;
#945 = DIRECTION ( 'NONE',  ( 0.0000000000000000000, 0.0000000000000000000, -1.000000000000000000 ) ) ;
#946 = CARTESIAN_POINT ( 'NONE',  ( 0.4999999999881765700, 0.01666666666666667300, 0.5749999999999998400 ) ) ;
#947 = VERTEX_POINT ( 'NONE', #1201 ) ;
#948 = AXIS2_PLACEMENT_3D ( 'NONE', #1143, #1253, #1153 ) ;
#949 = CARTESIAN_POINT ( 'NONE',  ( 0.9499999999999995100, 0.6999999999999999600, 0.5749999999999996200 ) ) ;
#950 = CARTESIAN_POINT ( 'NONE',  ( 0.9499999999999995100, 0.6999999999999999600, 0.5749999999999996200 ) ) ;
#951 = ADVANCED_FACE ( 'NONE', ( #956 ), #1135, .F. ) ;
#952 = DIRECTION ( 'NONE',  ( 0.0000000000000000000, 0.0000000000000000000, 1.000000000000000000 ) ) ;
#953 = EDGE_CURVE ( 'NONE', #791, #229, #1232, .T. ) ;
#954 = STYLED_ITEM ( 'NONE', ( #628 ), #240 ) ;
#955 = CIRCLE ( 'NONE', #422, 0.05000000000000002400 ) ;
#956 = FACE_OUTER_BOUND ( 'NONE', #1066, .T. ) ;
#957 = AXIS2_PLACEMENT_3D ( 'NONE', #748, #337, #734 ) ;
#958 = FACE_OUTER_BOUND ( 'NONE', #220, .T. ) ;
#959 = SPHERICAL_SURFACE ( 'NONE', #1065, 0.05000000000000000300 ) ;
#960 = DIRECTION ( 'NONE',  ( -1.000000000000000000, -0.0000000000000000000, 8.673617379884036700E-017 ) ) ;
#961 = EDGE_LOOP ( 'NONE', ( #680, #724, #474, #412, #1122, #991, #979, #331 ) ) ;
#962 = LINE ( 'NONE', #908, #1158 ) ;
#963 = CARTESIAN_POINT ( 'NONE',  ( 0.9499999999999999600, 0.0000000000000000000, -0.5749999999999998400 ) ) ;
#964 = EDGE_LOOP ( 'NONE', ( #897, #241, #1109, #1087 ) ) ;
#965 = ORIENTED_EDGE ( 'NONE', *, *, #13, .F. ) ;
#966 = EDGE_CURVE ( 'NONE', #789, #259, #738, .T. ) ;
#967 = ORIENTED_EDGE ( 'NONE', *, *, #65, .T. ) ;
#968 = CARTESIAN_POINT ( 'NONE',  ( -0.9499999999999999600, 0.05000000000000000300, -0.5749999999999998400 ) ) ;
#969 = AXIS2_PLACEMENT_3D ( 'NONE', #751, #855, #552 ) ;
#970 = EDGE_CURVE ( 'NONE', #219, #1047, #1071, .T. ) ;
#971 = FACE_OUTER_BOUND ( 'NONE', #129, .T. ) ;
#972 = DIRECTION ( 'NONE',  ( -1.000000000000000000, 0.0000000000000000000, -0.0000000000000000000 ) ) ;
#973 = CARTESIAN_POINT ( 'NONE',  ( -0.4999999999999996700, 0.7333333333333333900, 0.5749999999999997300 ) ) ;
#974 = LINE ( 'NONE', #324, #1156 ) ;
#975 = ORIENTED_EDGE ( 'NONE', *, *, #941, .F. ) ;
#976 = ORIENTED_EDGE ( 'NONE', *, *, #438, .T. ) ;
#977 = ORIENTED_EDGE ( 'NONE', *, *, #970, .F. ) ;
#978 = DIRECTION ( 'NONE',  ( 1.000000000000000000, 0.0000000000000000000, 1.734723475976807600E-016 ) ) ;
#979 = ORIENTED_EDGE ( 'NONE', *, *, #224, .T. ) ;
#980 = AXIS2_PLACEMENT_3D ( 'NONE', #1137, #624, #1031 ) ;
#981 = AXIS2_PLACEMENT_3D ( 'NONE', #1150, #344, #75 ) ;
#982 = SPHERICAL_SURFACE ( 'NONE', #8, 0.05000000000000000300 ) ;
#983 = EDGE_CURVE ( 'NONE', #484, #19, #277, .T. ) ;
#984 = CIRCLE ( 'NONE', #190, 0.05000000000000002400 ) ;
#985 = DIRECTION ( 'NONE',  ( -0.0000000000000000000, -0.0000000000000000000, 1.000000000000000000 ) ) ;
#986 = AXIS2_PLACEMENT_3D ( 'NONE', #996, #21, #134 ) ;
#987 = LINE ( 'NONE', #808, #721 ) ;
#988 =( NAMED_UNIT ( * ) SI_UNIT ( $, .STERADIAN. ) SOLID_ANGLE_UNIT ( ) );
#989 = FACE_OUTER_BOUND ( 'NONE', #997, .T. ) ;
#990 = AXIS2_PLACEMENT_3D ( 'NONE', #1084, #18, #883 ) ;
#991 = ORIENTED_EDGE ( 'NONE', *, *, #380, .F. ) ;
#992 = LINE ( 'NONE', #507, #677 ) ;
#993 = CARTESIAN_POINT ( 'NONE',  ( 0.0000000000000000000, 0.0000000000000000000, 0.0000000000000000000 ) ) ;
#994 = ORIENTED_EDGE ( 'NONE', *, *, #415, .F. ) ;
#995 = ORIENTED_EDGE ( 'NONE', *, *, #13, .T. ) ;
#996 = CARTESIAN_POINT ( 'NONE',  ( -0.9499999999999999600, 0.05000000000000002400, -0.5749999999999998400 ) ) ;
#997 = EDGE_LOOP ( 'NONE', ( #927, #712, #1258, #617 ) ) ;
#998 = EDGE_CURVE ( 'NONE', #1141, #523, #444, .T. ) ;
#999 = ORIENTED_EDGE ( 'NONE', *, *, #235, .T. ) ;
#1000 = CARTESIAN_POINT ( 'NONE',  ( 0.9499999999999999600, 0.6999999999999999600, -0.6249999999999998900 ) ) ;
#1001 = UNCERTAINTY_MEASURE_WITH_UNIT (LENGTH_MEASURE( 1.000000000000000100E-005 ), #1194, 'distance_accuracy_value', 'NONE');
#1002 = ADVANCED_FACE ( 'NONE', ( #834 ), #424, .F. ) ;
#1003 = CARTESIAN_POINT ( 'NONE',  ( -0.9499999999999999600, 0.05000000000000000300, -0.5749999999999998400 ) ) ;
#1004 = CARTESIAN_POINT ( 'NONE',  ( 0.0000000000000000000, 0.0000000000000000000, 0.0000000000000000000 ) ) ;
#1005 = EDGE_CURVE ( 'NONE', #1045, #791, #872, .T. ) ;
#1006 = LINE ( 'NONE', #867, #780 ) ;
#1007 = EDGE_CURVE ( 'NONE', #861, #1157, #389, .T. ) ;
#1008 = DIRECTION ( 'NONE',  ( 1.000000000000000000, -0.0000000000000000000, -0.0000000000000000000 ) ) ;
#1009 = VECTOR ( 'NONE', #937, 1000.000000000000000 ) ;
#1010 = ORIENTED_EDGE ( 'NONE', *, *, #301, .F. ) ;
#1011 =( GEOMETRIC_REPRESENTATION_CONTEXT ( 3 ) GLOBAL_UNCERTAINTY_ASSIGNED_CONTEXT ( ( #487 ) ) GLOBAL_UNIT_ASSIGNED_CONTEXT ( ( #289, #1198, #988 ) ) REPRESENTATION_CONTEXT ( 'NONE', 'WORKASPACE' ) );
#1012 = ORIENTED_EDGE ( 'NONE', *, *, #754, .F. ) ;
#1013 = ORIENTED_EDGE ( 'NONE', *, *, #135, .F. ) ;
#1014 = DIRECTION ( 'NONE',  ( 0.0000000000000000000, 0.0000000000000000000, 1.000000000000000000 ) ) ;
#1015 = ORIENTED_EDGE ( 'NONE', *, *, #723, .F. ) ;
#1016 = DIRECTION ( 'NONE',  ( 1.000000000000000000, 0.0000000000000000000, 1.734723475976807600E-016 ) ) ;
#1017 = ADVANCED_FACE ( 'NONE', ( #971 ), #846, .F. ) ;
#1018 = DIRECTION ( 'NONE',  ( 1.000000000000000000, 0.0000000000000000000, 1.734723475976807600E-016 ) ) ;
#1019 = CARTESIAN_POINT ( 'NONE',  ( -0.4999999999999997800, 0.05000000000000002400, -0.6249999999999998900 ) ) ;
#1020 = DIRECTION ( 'NONE',  ( 1.734723475976807600E-016, -0.0000000000000000000, -1.000000000000000000 ) ) ;
#1021 = AXIS2_PLACEMENT_3D ( 'NONE', #467, #1172, #1276 ) ;
#1022 = LINE ( 'NONE', #60, #644 ) ;
#1023 = ORIENTED_EDGE ( 'NONE', *, *, #1204, .T. ) ;
#1024 = FACE_OUTER_BOUND ( 'NONE', #333, .T. ) ;
#1025 = CARTESIAN_POINT ( 'NONE',  ( 0.4999999999881765700, 0.05000000000000002400, 0.5749999999999997300 ) ) ;
#1026 = ORIENTED_EDGE ( 'NONE', *, *, #941, .T. ) ;
#1027 = ORIENTED_EDGE ( 'NONE', *, *, #1050, .T. ) ;
#1028 = CARTESIAN_POINT ( 'NONE',  ( 0.0000000000000000000, 0.6999999999999999600, -0.5749999999999998400 ) ) ;
#1029 = EDGE_LOOP ( 'NONE', ( #1043, #821, #911 ) ) ;
#1030 = ORIENTED_EDGE ( 'NONE', *, *, #158, .T. ) ;
#1031 = DIRECTION ( 'NONE',  ( 0.0000000000000000000, 0.0000000000000000000, 1.000000000000000000 ) ) ;
#1032 = EDGE_CURVE ( 'NONE', #806, #229, #572, .T. ) ;
#1033 = CARTESIAN_POINT ( 'NONE',  ( -0.9499999999999999600, 0.7500000000000000000, -0.5749999999999998400 ) ) ;
#1034 = CARTESIAN_POINT ( 'NONE',  ( 500000.0000000000600, 0.05000000000000002400, 0.6083333332899650800 ) ) ;
#1035 = AXIS2_PLACEMENT_3D ( 'NONE', #608, #816, #899 ) ;
#1036 = LINE ( 'NONE', #1072, #152 ) ;
#1037 = VECTOR ( 'NONE', #912, 1000.000000000000000 ) ;
#1038 = CARTESIAN_POINT ( 'NONE',  ( 1.000000000000000000, 0.05000000000000002400, -0.5749999999999998400 ) ) ;
#1039 = CARTESIAN_POINT ( 'NONE',  ( 0.9499999999999999600, 0.7500000000000000000, -0.6249999999999998900 ) ) ;
#1040 = CARTESIAN_POINT ( 'NONE',  ( -0.4999999999999996700, 0.05000000000000003100, -0.6083333333333331700 ) ) ;
#1041 = ADVANCED_FACE ( 'NONE', ( #300 ), #656, .T. ) ;
#1042 = AXIS2_PLACEMENT_3D ( 'NONE', #392, #1213, #904 ) ;
#1043 = ORIENTED_EDGE ( 'NONE', *, *, #998, .F. ) ;
#1044 = ORIENTED_EDGE ( 'NONE', *, *, #477, .T. ) ;
#1045 = VERTEX_POINT ( 'NONE', #481 ) ;
#1046 = AXIS2_PLACEMENT_3D ( 'NONE', #553, #1161, #1243 ) ;
#1047 = VERTEX_POINT ( 'NONE', #963 ) ;
#1048 = CARTESIAN_POINT ( 'NONE',  ( -0.4999999999999995600, 0.6999999999999999600, 0.6249999999999996700 ) ) ;
#1049 = ADVANCED_FACE ( 'NONE', ( #1171 ), #252, .F. ) ;
#1050 = EDGE_CURVE ( 'NONE', #1179, #665, #1036, .T. ) ;
#1051 = DIRECTION ( 'NONE',  ( 0.0000000000000000000, -1.000000000000000000, 0.0000000000000000000 ) ) ;
#1052 = DIRECTION ( 'NONE',  ( 0.0000000000000000000, -1.000000000000000000, 0.0000000000000000000 ) ) ;
#1053 = PRESENTATION_LAYER_ASSIGNMENT (  '', '', ( #58 ) ) ;
#1054 = VECTOR ( 'NONE', #517, 1000.000000000000000 ) ;
#1055 = ADVANCED_FACE ( 'NONE', ( #817 ), #367, .F. ) ;
#1056 = CARTESIAN_POINT ( 'NONE',  ( -0.9999999999999995600, 0.05000000000000002400, 0.5749999999999996200 ) ) ;
#1057 = CARTESIAN_POINT ( 'NONE',  ( -0.4999999999999997800, 0.7500000000000000000, -0.6249999999999998900 ) ) ;
#1058 = VECTOR ( 'NONE', #1257, 1000.000000000000000 ) ;
#1059 = EDGE_CURVE ( 'NONE', #1101, #592, #1006, .T. ) ;
#1060 = ORIENTED_EDGE ( 'NONE', *, *, #670, .F. ) ;
#1061 = VECTOR ( 'NONE', #1262, 1000.000000000000000 ) ;
#1062 = CARTESIAN_POINT ( 'NONE',  ( -0.9499999999999995100, 0.0000000000000000000, 0.5749999999999996200 ) ) ;
#1063 = ORIENTED_EDGE ( 'NONE', *, *, #368, .T. ) ;
#1064 = VECTOR ( 'NONE', #359, 1000.000000000000000 ) ;
#1065 = AXIS2_PLACEMENT_3D ( 'NONE', #365, #573, #559 ) ;
#1066 = EDGE_LOOP ( 'NONE', ( #394, #1013, #377, #1177, #309, #525, #103, #878 ) ) ;
#1067 = AXIS2_PLACEMENT_3D ( 'NONE', #1247, #340, #71 ) ;
#1068 = EDGE_LOOP ( 'NONE', ( #859, #1235, #1209, #975 ) ) ;
#1069 = DIRECTION ( 'NONE',  ( 0.0000000000000000000, 0.0000000000000000000, -1.000000000000000000 ) ) ;
#1070 = ADVANCED_FACE ( 'NONE', ( #42 ), #1078, .T. ) ;
#1071 = LINE ( 'NONE', #620, #799 ) ;
#1072 = CARTESIAN_POINT ( 'NONE',  ( -0.9499999999999997300, 0.0000000000000000000, 3.295974604355933500E-016 ) ) ;
#1073 = LINE ( 'NONE', #719, #113 ) ;
#1074 = ORIENTED_EDGE ( 'NONE', *, *, #832, .T. ) ;
#1075 = ORIENTED_EDGE ( 'NONE', *, *, #327, .T. ) ;
#1076 = CARTESIAN_POINT ( 'NONE',  ( 500000.0000000000600, 0.6999999999999999600, 0.5749999999566316500 ) ) ;
#1077 = ORIENTED_EDGE ( 'NONE', *, *, #749, .F. ) ;
#1078 = PLANE ( 'NONE',  #458 ) ;
#1079 = PRESENTATION_LAYER_ASSIGNMENT (  '', '', ( #1098 ) ) ;
#1080 = EDGE_CURVE ( 'NONE', #926, #843, #362, .T. ) ;
#1081 = CARTESIAN_POINT ( 'NONE',  ( -0.4999999999999996700, 0.01666666666666667300, 0.5749999999999998400 ) ) ;
#1082 = DIRECTION ( 'NONE',  ( -1.000000000000000000, 0.0000000000000000000, 0.0000000000000000000 ) ) ;
#1083 = LINE ( 'NONE', #906, #56 ) ;
#1084 = CARTESIAN_POINT ( 'NONE',  ( 0.9499999999999995100, 0.05000000000000000300, 0.5749999999999996200 ) ) ;
#1085 = VERTEX_POINT ( 'NONE', #781 ) ;
#1086 = VERTEX_POINT ( 'NONE', #501 ) ;
#1087 = ORIENTED_EDGE ( 'NONE', *, *, #1195, .T. ) ;
#1088 = VERTEX_POINT ( 'NONE', #889 ) ;
#1089 = AXIS2_PLACEMENT_3D ( 'NONE', #89, #93, #758 ) ;
#1090 = CLOSED_SHELL ( 'NONE', ( #1017, #752, #556, #457, #315, #1002, #68, #37, #662, #745, #234, #1100, #92, #606, #1041, #1125, #342, #280 ) ) ;
#1091 = DIRECTION ( 'NONE',  ( 0.0000000000000000000, 1.000000000000000000, 0.0000000000000000000 ) ) ;
#1092 = LINE ( 'NONE', #186, #560 ) ;
#1093 = CIRCLE ( 'NONE', #522, 0.05000000000000002400 ) ;
#1094 = DIRECTION ( 'NONE',  ( -1.000000000000000000, 0.0000000000000000000, 0.0000000000000000000 ) ) ;
#1095 = ADVANCED_BREP_SHAPE_REPRESENTATION ( 'CL21B223KBANNNC', ( #240, #446, #671, #688 ), #1011 ) ;
#1096 = CIRCLE ( 'NONE', #269, 0.03333333333333334700 ) ;
#1097 = LINE ( 'NONE', #131, #188 ) ;
#1098 = STYLED_ITEM ( 'NONE', ( #686 ), #1095 ) ;
#1099 = PLANE ( 'NONE',  #567 ) ;
#1100 = ADVANCED_FACE ( 'NONE', ( #595 ), #638, .T. ) ;
#1101 = VERTEX_POINT ( 'NONE', #383 ) ;
#1102 = SURFACE_STYLE_FILL_AREA ( #905 ) ;
#1103 = ORIENTED_EDGE ( 'NONE', *, *, #1223, .F. ) ;
#1104 = VERTEX_POINT ( 'NONE', #393 ) ;
#1105 = CARTESIAN_POINT ( 'NONE',  ( -0.9499999999999995100, 0.05000000000000000300, 0.5749999999999996200 ) ) ;
#1106 = VERTEX_POINT ( 'NONE', #596 ) ;
#1107 = SURFACE_STYLE_USAGE ( .BOTH. , #236 ) ;
#1108 = CARTESIAN_POINT ( 'NONE',  ( -0.9499999999999999600, 0.05000000000000002400, -0.6249999999999998900 ) ) ;
#1109 = ORIENTED_EDGE ( 'NONE', *, *, #895, .T. ) ;
#1110 = DIRECTION ( 'NONE',  ( 1.000000000000000000, 0.0000000000000000000, 0.0000000000000000000 ) ) ;
#1111 = CARTESIAN_POINT ( 'NONE',  ( 1.000000000000000000, 0.6999999999999999600, -0.5749999999999998400 ) ) ;
#1112 = DIRECTION ( 'NONE',  ( -0.0000000000000000000, 0.0000000000000000000, 1.000000000000000000 ) ) ;
#1113 = CARTESIAN_POINT ( 'NONE',  ( 0.9499999999999999600, 0.05000000000000002400, -0.6249999999999998900 ) ) ;
#1114 = FACE_OUTER_BOUND ( 'NONE', #498, .T. ) ;
#1115 = COLOUR_RGB ( '',0.4862745098039215600, 0.2352941176470588200, 0.01568627450980392100 ) ;
#1116 = EDGE_CURVE ( 'NONE', #453, #665, #1230, .T. ) ;
#1117 = DIRECTION ( 'NONE',  ( 3.469446951953615200E-016, -0.0000000000000000000, -1.000000000000000000 ) ) ;
#1118 = FACE_OUTER_BOUND ( 'NONE', #5, .T. ) ;
#1119 = ORIENTED_EDGE ( 'NONE', *, *, #1195, .F. ) ;
#1120 = CARTESIAN_POINT ( 'NONE',  ( 500000.0000000000600, 0.6999999999999999600, -0.6083333333767012600 ) ) ;
#1121 = MECHANICAL_DESIGN_GEOMETRIC_PRESENTATION_REPRESENTATION (  '', ( #1098 ), #1148 ) ;
#1122 = ORIENTED_EDGE ( 'NONE', *, *, #249, .T. ) ;
#1123 = CARTESIAN_POINT ( 'NONE',  ( -0.4999999999999997800, 0.7500000000000000000, -0.6249999999999998900 ) ) ;
#1124 = ORIENTED_EDGE ( 'NONE', *, *, #776, .T. ) ;
#1125 = ADVANCED_FACE ( 'NONE', ( #111 ), #982, .T. ) ;
#1126 = DIRECTION ( 'NONE',  ( 0.0000000000000000000, -0.0000000000000000000, -1.000000000000000000 ) ) ;
#1127 = CARTESIAN_POINT ( 'NONE',  ( -0.9499999999999995100, 0.7500000000000000000, 0.5749999999999996200 ) ) ;
#1128 = ORIENTED_EDGE ( 'NONE', *, *, #637, .F. ) ;
#1129 = DIRECTION ( 'NONE',  ( 1.734723475976807600E-016, 0.0000000000000000000, -1.000000000000000000 ) ) ;
#1130 = AXIS2_PLACEMENT_3D ( 'NONE', #857, #647, #1269 ) ;
#1131 = CARTESIAN_POINT ( 'NONE',  ( 1.000000000000000000, 0.05000000000000002400, -0.6249999999999998900 ) ) ;
#1132 = DIRECTION ( 'NONE',  ( -1.000000000000000000, 0.0000000000000000000, 0.0000000000000000000 ) ) ;
#1133 = CARTESIAN_POINT ( 'NONE',  ( 0.4999999999999997800, 0.0000000000000000000, -0.6249999999999998900 ) ) ;
#1134 = VECTOR ( 'NONE', #353, 1000.000000000000000 ) ;
#1135 = PLANE ( 'NONE',  #1273 ) ;
#1136 = VECTOR ( 'NONE', #1184, 1000.000000000000000 ) ;
#1137 = CARTESIAN_POINT ( 'NONE',  ( -0.4999999999999995600, 0.6999999999999999600, 0.5749999999999996200 ) ) ;
#1138 = EDGE_CURVE ( 'NONE', #1163, #45, #361, .T. ) ;
#1139 = CIRCLE ( 'NONE', #980, 0.05000000000000002400 ) ;
#1140 = ORIENTED_EDGE ( 'NONE', *, *, #570, .F. ) ;
#1141 = VERTEX_POINT ( 'NONE', #29 ) ;
#1142 = VERTEX_POINT ( 'NONE', #302 ) ;
#1143 = CARTESIAN_POINT ( 'NONE',  ( 500000.0000000000600, 0.05000000000000002400, 0.5749999999566316500 ) ) ;
#1144 = DIRECTION ( 'NONE',  ( -0.0000000000000000000, -1.000000000000000000, -0.0000000000000000000 ) ) ;
#1145 = CARTESIAN_POINT ( 'NONE',  ( 1.000000000000000000, 0.05000000000000002400, -0.5749999999999998400 ) ) ;
#1146 = CARTESIAN_POINT ( 'NONE',  ( 0.9499999999999995100, 0.6999999999999999600, 0.5749999999999996200 ) ) ;
#1147 = ADVANCED_FACE ( 'NONE', ( #1114 ), #1099, .F. ) ;
#1148 =( GEOMETRIC_REPRESENTATION_CONTEXT ( 3 ) GLOBAL_UNCERTAINTY_ASSIGNED_CONTEXT ( ( #1001 ) ) GLOBAL_UNIT_ASSIGNED_CONTEXT ( ( #1194, #797, #892 ) ) REPRESENTATION_CONTEXT ( 'NONE', 'WORKASPACE' ) );
#1149 = CARTESIAN_POINT ( 'NONE',  ( 0.9499999999999995100, 0.7500000000000000000, 0.6249999999999996700 ) ) ;
#1150 = CARTESIAN_POINT ( 'NONE',  ( -0.9499999999999995100, 0.05000000000000002400, 0.5749999999999996200 ) ) ;
#1151 = CYLINDRICAL_SURFACE ( 'NONE', #360, 0.03333333333333334700 ) ;
#1152 = DIRECTION ( 'NONE',  ( 0.0000000000000000000, 0.0000000000000000000, 1.000000000000000000 ) ) ;
#1153 = DIRECTION ( 'NONE',  ( 0.0000000000000000000, 0.0000000000000000000, 1.000000000000000000 ) ) ;
#1154 = DIRECTION ( 'NONE',  ( 1.000000000000000000, -0.0000000000000000000, -1.734723475976807600E-016 ) ) ;
#1155 = EDGE_CURVE ( 'NONE', #1106, #221, #299, .T. ) ;
#1156 = VECTOR ( 'NONE', #524, 1000.000000000000000 ) ;
#1157 = VERTEX_POINT ( 'NONE', #62 ) ;
#1158 = VECTOR ( 'NONE', #786, 1000.000000000000000 ) ;
#1159 = DIRECTION ( 'NONE',  ( 1.000000000000000000, 0.0000000000000000000, 0.0000000000000000000 ) ) ;
#1160 = VERTEX_POINT ( 'NONE', #920 ) ;
#1161 = DIRECTION ( 'NONE',  ( -1.000000000000000000, 0.0000000000000000000, 0.0000000000000000000 ) ) ;
#1162 = PLANE ( 'NONE',  #824 ) ;
#1163 = VERTEX_POINT ( 'NONE', #1145 ) ;
#1164 = ORIENTED_EDGE ( 'NONE', *, *, #207, .T. ) ;
#1165 = EDGE_CURVE ( 'NONE', #1104, #1207, #717, .T. ) ;
#1166 = DIRECTION ( 'NONE',  ( -0.0000000000000000000, 1.000000000000000000, -0.0000000000000000000 ) ) ;
#1167 = ADVANCED_FACE ( 'NONE', ( #814 ), #838, .F. ) ;
#1168 = PRESENTATION_LAYER_ASSIGNMENT (  '', '', ( #954 ) ) ;
#1169 = SURFACE_SIDE_STYLE ('',( #925 ) ) ;
#1170 = VECTOR ( 'NONE', #108, 1000.000000000000000 ) ;
#1171 = FACE_OUTER_BOUND ( 'NONE', #494, .T. ) ;
#1172 = DIRECTION ( 'NONE',  ( 1.000000000000000000, 0.0000000000000000000, 1.734723475976807600E-016 ) ) ;
#1173 = FACE_OUTER_BOUND ( 'NONE', #825, .T. ) ;
#1174 = VERTEX_POINT ( 'NONE', #403 ) ;
#1175 = DIRECTION ( 'NONE',  ( -1.734723475976807600E-016, 0.0000000000000000000, 1.000000000000000000 ) ) ;
#1176 = EDGE_LOOP ( 'NONE', ( #1010, #727, #1077, #787 ) ) ;
#1177 = ORIENTED_EDGE ( 'NONE', *, *, #1214, .F. ) ;
#1178 = AXIS2_PLACEMENT_3D ( 'NONE', #1105, #385, #1210 ) ;
#1179 = VERTEX_POINT ( 'NONE', #1062 ) ;
#1180 = ADVANCED_FACE ( 'NONE', ( #388 ), #267, .T. ) ;
#1181 = EDGE_CURVE ( 'NONE', #1106, #881, #122, .T. ) ;
#1182 = DIRECTION ( 'NONE',  ( 1.000000000000000000, 0.0000000000000000000, 0.0000000000000000000 ) ) ;
#1183 = AXIS2_PLACEMENT_3D ( 'NONE', #432, #863, #939 ) ;
#1184 = DIRECTION ( 'NONE',  ( -1.000000000000000000, 0.0000000000000000000, 0.0000000000000000000 ) ) ;
#1185 = FACE_OUTER_BOUND ( 'NONE', #1029, .T. ) ;
#1186 = DIRECTION ( 'NONE',  ( 0.0000000000000000000, 0.0000000000000000000, 1.000000000000000000 ) ) ;
#1187 = DIRECTION ( 'NONE',  ( 3.469446951953615200E-016, -0.0000000000000000000, 1.000000000000000000 ) ) ;
#1188 = ORIENTED_EDGE ( 'NONE', *, *, #1181, .F. ) ;
#1189 = EDGE_CURVE ( 'NONE', #397, #1160, #779, .T. ) ;
#1190 = VERTEX_POINT ( 'NONE', #946 ) ;
#1191 = CARTESIAN_POINT ( 'NONE',  ( -1.000000000000000000, 0.7500000000000000000, -0.6249999999999998900 ) ) ;
#1192 = VERTEX_POINT ( 'NONE', #83 ) ;
#1193 = AXIS2_PLACEMENT_3D ( 'NONE', #139, #145, #1126 ) ;
#1194 =( LENGTH_UNIT ( ) NAMED_UNIT ( * ) SI_UNIT ( .MILLI., .METRE. ) );
#1195 = EDGE_CURVE ( 'NONE', #495, #1086, #1092, .T. ) ;
#1196 = SHAPE_DEFINITION_REPRESENTATION ( #445, #1095 ) ;
#1197 = DIRECTION ( 'NONE',  ( -1.734723475976807600E-016, 0.0000000000000000000, 1.000000000000000000 ) ) ;
#1198 =( NAMED_UNIT ( * ) PLANE_ANGLE_UNIT ( ) SI_UNIT ( $, .RADIAN. ) );
#1199 = LINE ( 'NONE', #375, #539 ) ;
#1200 = VECTOR ( 'NONE', #610, 1000.000000000000000 ) ;
#1201 = CARTESIAN_POINT ( 'NONE',  ( 0.4999999999999995600, 0.05000000000000002400, 0.6249999999999996700 ) ) ;
#1202 = ORIENTED_EDGE ( 'NONE', *, *, #1268, .T. ) ;
#1203 = FACE_OUTER_BOUND ( 'NONE', #400, .T. ) ;
#1204 = EDGE_CURVE ( 'NONE', #323, #592, #463, .T. ) ;
#1205 = ORIENTED_EDGE ( 'NONE', *, *, #1229, .F. ) ;
#1206 = EDGE_LOOP ( 'NONE', ( #130, #308, #1075, #459 ) ) ;
#1207 = VERTEX_POINT ( 'NONE', #258 ) ;
#1208 = AXIS2_PLACEMENT_3D ( 'NONE', #729, #531, #439 ) ;
#1209 = ORIENTED_EDGE ( 'NONE', *, *, #983, .T. ) ;
#1210 = DIRECTION ( 'NONE',  ( 0.0000000000000000000, 0.0000000000000000000, 1.000000000000000000 ) ) ;
#1211 = DIRECTION ( 'NONE',  ( 0.0000000000000000000, 0.0000000000000000000, 1.000000000000000000 ) ) ;
#1212 = PLANE ( 'NONE',  #543 ) ;
#1213 = DIRECTION ( 'NONE',  ( -1.000000000000000000, 0.0000000000000000000, 0.0000000000000000000 ) ) ;
#1214 = EDGE_CURVE ( 'NONE', #900, #484, #372, .T. ) ;
#1215 = FACE_OUTER_BOUND ( 'NONE', #196, .T. ) ;
#1216 = LINE ( 'NONE', #1039, #574 ) ;
#1217 = DIRECTION ( 'NONE',  ( 1.000000000000000000, -0.0000000000000000000, -0.0000000000000000000 ) ) ;
#1218 = CARTESIAN_POINT ( 'NONE',  ( 500000.0000000000600, 0.05000000000000002400, -0.6083333333767012600 ) ) ;
#1219 = ORIENTED_EDGE ( 'NONE', *, *, #575, .F. ) ;
#1220 = CYLINDRICAL_SURFACE ( 'NONE', #41, 0.05000000000000002400 ) ;
#1221 = ADVANCED_FACE ( 'NONE', ( #852 ), #286, .T. ) ;
#1222 = EDGE_LOOP ( 'NONE', ( #296, #454, #588 ) ) ;
#1223 = EDGE_CURVE ( 'NONE', #161, #1179, #594, .T. ) ;
#1224 = CARTESIAN_POINT ( 'NONE',  ( -0.9499999999999999600, 0.6999999999999999600, -0.5749999999999998400 ) ) ;
#1225 = ORIENTED_EDGE ( 'NONE', *, *, #462, .T. ) ;
#1226 = CARTESIAN_POINT ( 'NONE',  ( 0.9499999999999999600, 0.05000000000000002400, -0.6249999999999998900 ) ) ;
#1227 = DIRECTION ( 'NONE',  ( -1.000000000000000000, -0.0000000000000000000, 8.673617379884036700E-017 ) ) ;
#1228 = CARTESIAN_POINT ( 'NONE',  ( -0.4999999999999997800, 0.0000000000000000000, -0.6249999999999998900 ) ) ;
#1229 = EDGE_CURVE ( 'NONE', #202, #888, #833, .T. ) ;
#1230 = CIRCLE ( 'NONE', #1035, 0.05000000000000002400 ) ;
#1231 = FILL_AREA_STYLE_COLOUR ( '', #61 ) ;
#1232 = LINE ( 'NONE', #1123, #96 ) ;
#1233 = FACE_OUTER_BOUND ( 'NONE', #1206, .T. ) ;
#1234 = FACE_OUTER_BOUND ( 'NONE', #645, .T. ) ;
#1235 = ORIENTED_EDGE ( 'NONE', *, *, #415, .T. ) ;
#1236 = CARTESIAN_POINT ( 'NONE',  ( -0.9499999999999995100, 0.05000000000000002400, 0.6249999999999996700 ) ) ;
#1237 = LINE ( 'NONE', #919, #431 ) ;
#1238 = ORIENTED_EDGE ( 'NONE', *, *, #587, .F. ) ;
#1239 = CIRCLE ( 'NONE', #136, 0.03333333333333334700 ) ;
#1240 = ORIENTED_EDGE ( 'NONE', *, *, #880, .F. ) ;
#1241 = ORIENTED_EDGE ( 'NONE', *, *, #625, .T. ) ;
#1242 = CARTESIAN_POINT ( 'NONE',  ( 0.9499999999999995100, 0.05000000000000002400, 0.6249999999999996700 ) ) ;
#1243 = DIRECTION ( 'NONE',  ( 0.0000000000000000000, 0.0000000000000000000, 1.000000000000000000 ) ) ;
#1244 = DIRECTION ( 'NONE',  ( 0.0000000000000000000, 0.0000000000000000000, -1.000000000000000000 ) ) ;
#1245 = UNCERTAINTY_MEASURE_WITH_UNIT (LENGTH_MEASURE( 1.000000000000000100E-005 ), #732, 'distance_accuracy_value', 'NONE');
#1246 = PLANE ( 'NONE',  #1208 ) ;
#1247 = CARTESIAN_POINT ( 'NONE',  ( -0.4999999999999996700, 0.05000000000000002400, -0.5749999999999997300 ) ) ;
#1248 = CIRCLE ( 'NONE', #654, 0.05000000000000002400 ) ;
#1249 = DIRECTION ( 'NONE',  ( 0.0000000000000000000, 0.0000000000000000000, -1.000000000000000000 ) ) ;
#1250 = CARTESIAN_POINT ( 'NONE',  ( 0.4999999999881765700, 0.6999999999999999600, 0.5749999999999997300 ) ) ;
#1251 = AXIS2_PLACEMENT_3D ( 'NONE', #164, #263, #733 ) ;
#1252 = FACE_OUTER_BOUND ( 'NONE', #1176, .T. ) ;
#1253 = DIRECTION ( 'NONE',  ( -1.000000000000000000, -0.0000000000000000000, 8.673617379884036700E-017 ) ) ;
#1254 = DIRECTION ( 'NONE',  ( 0.0000000000000000000, -1.000000000000000000, 0.0000000000000000000 ) ) ;
#1255 = ORIENTED_EDGE ( 'NONE', *, *, #819, .T. ) ;
#1256 = FACE_OUTER_BOUND ( 'NONE', #676, .T. ) ;
#1257 = DIRECTION ( 'NONE',  ( 0.0000000000000000000, -1.000000000000000000, 0.0000000000000000000 ) ) ;
#1258 = ORIENTED_EDGE ( 'NONE', *, *, #98, .F. ) ;
#1259 = ORIENTED_EDGE ( 'NONE', *, *, #489, .F. ) ;
#1260 = ORIENTED_EDGE ( 'NONE', *, *, #652, .T. ) ;
#1261 = CARTESIAN_POINT ( 'NONE',  ( 0.4999999999999995600, 0.7500000000000000000, 0.5749999999999997300 ) ) ;
#1262 = DIRECTION ( 'NONE',  ( 1.000000000000000000, -0.0000000000000000000, -0.0000000000000000000 ) ) ;
#1263 = ADVANCED_FACE ( 'NONE', ( #1215 ), #1151, .T. ) ;
#1264 = AXIS2_PLACEMENT_3D ( 'NONE', #924, #621, #1244 ) ;
#1265 = DIRECTION ( 'NONE',  ( -1.000000000000000000, 0.0000000000000000000, 0.0000000000000000000 ) ) ;
#1266 = CARTESIAN_POINT ( 'NONE',  ( 1.000000000000000000, 0.7500000000000000000, -0.6249999999999998900 ) ) ;
#1267 = VECTOR ( 'NONE', #483, 1000.000000000000000 ) ;
#1268 = EDGE_CURVE ( 'NONE', #219, #45, #955, .T. ) ;
#1269 = DIRECTION ( 'NONE',  ( -1.000000000000000000, 0.0000000000000000000, 3.469446951953615700E-016 ) ) ;
#1270 = EDGE_LOOP ( 'NONE', ( #1063, #764, #995, #455 ) ) ;
#1271 = VECTOR ( 'NONE', #1254, 1000.000000000000000 ) ;
#1272 = ORIENTED_EDGE ( 'NONE', *, *, #224, .F. ) ;
#1273 = AXIS2_PLACEMENT_3D ( 'NONE', #538, #914, #830 ) ;
#1274 = ADVANCED_FACE ( 'NONE', ( #423 ), #4, .F. ) ;
#1275 = VERTEX_POINT ( 'NONE', #672 ) ;
#1276 = DIRECTION ( 'NONE',  ( 0.0000000000000000000, 0.0000000000000000000, 1.000000000000000000 ) ) ;
#1277 = ADVANCED_FACE ( 'NONE', ( #346 ), #78, .T. ) ;
#1278 = CIRCLE ( 'NONE', #990, 0.05000000000000002400 ) ;
#1279 = FILL_AREA_STYLE_COLOUR ( '', #210 ) ;
#1280 = CIRCLE ( 'NONE', #290, 0.05000000000000002400 ) ;
ENDSEC;
END-ISO-10303-21;
