
(module CAPC2012X140N (layer F.Cu) (tedit 6236716E)
  (descr "")
  (fp_text reference REF** (at 1.375 -1.635 0) (layer F.SilkS)
    (effects (font (size 1.0 1.0) (thickness 0.15)))
  )
  (fp_text value CAPC2012X140N (at 6.455 1.665 0) (layer F.Fab)
    (effects (font (size 1.0 1.0) (thickness 0.15)))
  )
  (pad 1 smd rect (at -0.9 0.0) (size 1.15 1.45) (layers F.Cu F.Mask F.Paste))
  (pad 2 smd rect (at 0.9 0.0) (size 1.15 1.45) (layers F.Cu F.Mask F.Paste))
  (fp_line (start 0.0 -0.55) (end 0.0 0.55) (layer F.SilkS) (width 0.2))
  (fp_line (start -1.75 -1.0) (end 1.75 -1.0) (layer F.CrtYd) (width 0.05))
  (fp_line (start 1.75 -1.0) (end 1.75 1.0) (layer F.CrtYd) (width 0.05))
  (fp_line (start 1.75 1.0) (end -1.75 1.0) (layer F.CrtYd) (width 0.05))
  (fp_line (start -1.75 1.0) (end -1.75 -1.0) (layer F.CrtYd) (width 0.05))
  (fp_line (start -1.0 -0.65) (end 1.0 -0.65) (layer F.Fab) (width 0.127))
  (fp_line (start 1.0 -0.65) (end 1.0 0.65) (layer F.Fab) (width 0.127))
  (fp_line (start 1.0 0.65) (end -1.0 0.65) (layer F.Fab) (width 0.127))
  (fp_line (start -1.0 0.65) (end -1.0 -0.65) (layer F.Fab) (width 0.127))
  (fp_poly
    (pts
      (xy -1.0 -0.65)
      (xy -0.5 -0.65)
      (xy -0.5 0.65)
      (xy -1.0 0.65)
    ) (layer F.Fab) (width 0.01)
  )
  (fp_poly
    (pts
      (xy 0.5 -0.65)
      (xy 1.0 -0.65)
      (xy 1.0 0.65)
      (xy 0.5 0.65)
    ) (layer F.Fab) (width 0.01)
  )
)