ERC report (Sunday, 20 March 2022 at 19:56:04, Encoding UTF8)

***** Sheet /

***** Sheet /Power/

***** Sheet /Sensing/

***** Sheet /microcontroller_interfacing/

***** Sheet /Outputs/

 ** ERC messages: 0  Errors 0  Warnings 0
