%!PS-Adobe-3.0
%%Creator: PCBNEW
%%CreationDate: Mon Mar 21 09:59:35 2022
%%Title: ()
%%Pages: 1
%%PageOrder: Ascend
%%BoundingBox: 0 0 596 842
%%DocumentMedia: A4 595 842 0 () ()
%%Orientation: Landscape
%%EndComments
%%BeginProlog
/line { newpath moveto lineto stroke } bind def
/cir0 { newpath 0 360 arc stroke } bind def
/cir1 { newpath 0 360 arc gsave fill grestore stroke } bind def
/cir2 { newpath 0 360 arc gsave fill grestore stroke } bind def
/arc0 { newpath arc stroke } bind def
/arc1 { newpath 4 index 4 index moveto arc closepath gsave fill
    grestore stroke } bind def
/arc2 { newpath 4 index 4 index moveto arc closepath gsave fill
    grestore stroke } bind def
/poly0 { stroke } bind def
/poly1 { closepath gsave fill grestore stroke } bind def
/poly2 { closepath gsave fill grestore stroke } bind def
/rect0 { rectstroke } bind def
/rect1 { rectfill } bind def
/rect2 { rectfill } bind def
/linemode0 { 0 setlinecap 0 setlinejoin 0 setlinewidth } bind def
/linemode1 { 1 setlinecap 1 setlinejoin } bind def
/dashedline { [200] 100 setdash } bind def
/solidline { [] 0 setdash } bind def
/phantomshow { moveto
    /KicadFont findfont 0.000001 scalefont setfont
    show } bind def
/textshow { gsave
    findfont exch scalefont setfont concat 1 scale 0 0 moveto show
    } bind def
/reencodefont {
  findfont dup length dict begin
  { 1 index /FID ne
    { def }
    { pop pop } ifelse
  } forall
  /Encoding ISOLatin1Encoding def
  currentdict
  end } bind def
/KicadFont /Helvetica reencodefont definefont pop
/KicadFont-Bold /Helvetica-Bold reencodefont definefont pop
/KicadFont-Oblique /Helvetica-Oblique reencodefont definefont pop
/KicadFont-BoldOblique /Helvetica-BoldOblique reencodefont definefont pop
%%EndProlog
%%Page: 1 1
%%BeginPageSetup
gsave
0.0072 0.0072 scale
linemode1
82680 0 translate 90 rotate
104.724 setlinewidth
%%EndPageSetup
0 0 0 setrgbcolor
52.3618 setlinewidth
newpath
26345.8 80685.3 moveto
90584.2 80685.3 lineto
stroke
newpath
90584.2 80685.3 moveto
90584.2 35066.7 lineto
stroke
newpath
90584.2 35066.7 moveto
26345.8 35066.7 lineto
stroke
newpath
26345.8 35066.7 moveto
26345.8 80685.3 lineto
stroke
104.724 setlinewidth
291.655 setlinewidth
newpath
54967.8 56146.8 moveto
57884.3 53230.2 lineto
stroke
newpath
57884.3 56146.8 moveto
54967.8 53230.2 lineto
stroke
newpath
66749.2 63210.4 moveto
69665.7 60293.8 lineto
stroke
newpath
69665.7 63210.4 moveto
66749.2 60293.8 lineto
stroke
newpath
66749.2 49140.7 moveto
69665.7 46224.2 lineto
stroke
newpath
69665.7 49140.7 moveto
66749.2 46224.2 lineto
stroke
104.724 setlinewidth
78.7401 setlinewidth
0 0 0 setrgbcolor
0 0 0 setrgbcolor
newpath
27333.8 33818.2 moveto
27333.8 34605.6 lineto
27521.3 34605.6 lineto
27633.8 34568.1 lineto
27708.8 34493.1 lineto
27746.3 34418.1 lineto
27783.8 34268.1 lineto
27783.8 34155.6 lineto
27746.3 34005.6 lineto
27708.8 33930.6 lineto
27633.8 33855.7 lineto
27521.3 33818.2 lineto
27333.8 33818.2 lineto
stroke
newpath
28121.2 33818.2 moveto
28121.2 34343.1 lineto
stroke
newpath
28121.2 34193.1 moveto
28158.7 34268.1 lineto
28196.2 34305.6 lineto
28271.2 34343.1 lineto
28346.2 34343.1 lineto
stroke
newpath
28608.7 33818.2 moveto
28608.7 34343.1 lineto
stroke
newpath
28608.7 34605.6 moveto
28571.2 34568.1 lineto
28608.7 34530.6 lineto
28646.2 34568.1 lineto
28608.7 34605.6 lineto
28608.7 34530.6 lineto
stroke
newpath
29096.1 33818.2 moveto
29021.1 33855.7 lineto
28983.6 33930.6 lineto
28983.6 34605.6 lineto
stroke
newpath
29508.6 33818.2 moveto
29433.6 33855.7 lineto
29396.1 33930.6 lineto
29396.1 34605.6 lineto
stroke
newpath
30408.4 33818.2 moveto
30408.4 34605.6 lineto
30670.9 34043.1 lineto
30933.4 34605.6 lineto
30933.4 33818.2 lineto
stroke
newpath
31645.8 33818.2 moveto
31645.8 34230.6 lineto
31608.3 34305.6 lineto
31533.3 34343.1 lineto
31383.3 34343.1 lineto
31308.3 34305.6 lineto
stroke
newpath
31645.8 33855.7 moveto
31570.8 33818.2 lineto
31383.3 33818.2 lineto
31308.3 33855.7 lineto
31270.8 33930.6 lineto
31270.8 34005.6 lineto
31308.3 34080.6 lineto
31383.3 34118.1 lineto
31570.8 34118.1 lineto
31645.8 34155.6 lineto
stroke
newpath
32020.7 34343.1 moveto
32020.7 33555.7 lineto
stroke
newpath
32020.7 34305.6 moveto
32095.7 34343.1 lineto
32245.7 34343.1 lineto
32320.7 34305.6 lineto
32358.2 34268.1 lineto
32395.7 34193.1 lineto
32395.7 33968.1 lineto
32358.2 33893.1 lineto
32320.7 33855.7 lineto
32245.7 33818.2 lineto
32095.7 33818.2 lineto
32020.7 33855.7 lineto
stroke
newpath
32733.2 33893.1 moveto
32770.6 33855.7 lineto
32733.2 33818.2 lineto
32695.7 33855.7 lineto
32733.2 33893.1 lineto
32733.2 33818.2 lineto
stroke
newpath
32733.2 34305.6 moveto
32770.6 34268.1 lineto
32733.2 34230.6 lineto
32695.7 34268.1 lineto
32733.2 34305.6 lineto
32733.2 34230.6 lineto
stroke
newpath
25532.2 32914.5 moveto
26319.6 32127.1 lineto
stroke
newpath
26319.6 32914.5 moveto
25532.2 32127.1 lineto
stroke
104.724 setlinewidth
78.7401 setlinewidth
0 0 0 setrgbcolor
0 0 0 setrgbcolor
newpath
27708.8 32952 moveto
27333.8 32952 lineto
27296.3 32577.1 lineto
27333.8 32614.6 lineto
27408.8 32652.1 lineto
27596.3 32652.1 lineto
27671.3 32614.6 lineto
27708.8 32577.1 lineto
27746.3 32502.1 lineto
27746.3 32314.6 lineto
27708.8 32239.6 lineto
27671.3 32202.1 lineto
27596.3 32164.6 lineto
27408.8 32164.6 lineto
27333.8 32202.1 lineto
27296.3 32239.6 lineto
stroke
newpath
28083.7 32239.6 moveto
28121.2 32202.1 lineto
28083.7 32164.6 lineto
28046.2 32202.1 lineto
28083.7 32239.6 lineto
28083.7 32164.6 lineto
stroke
newpath
28833.6 32952 moveto
28458.7 32952 lineto
28421.2 32577.1 lineto
28458.7 32614.6 lineto
28533.7 32652.1 lineto
28721.2 32652.1 lineto
28796.1 32614.6 lineto
28833.6 32577.1 lineto
28871.1 32502.1 lineto
28871.1 32314.6 lineto
28833.6 32239.6 lineto
28796.1 32202.1 lineto
28721.2 32164.6 lineto
28533.7 32164.6 lineto
28458.7 32202.1 lineto
28421.2 32239.6 lineto
stroke
newpath
29133.6 32952 moveto
29658.5 32952 lineto
29321.1 32164.6 lineto
stroke
newpath
30108.5 32952 moveto
30183.5 32952 lineto
30258.5 32914.5 lineto
30296 32877 lineto
30333.5 32802 lineto
30370.9 32652.1 lineto
30370.9 32464.6 lineto
30333.5 32314.6 lineto
30296 32239.6 lineto
30258.5 32202.1 lineto
30183.5 32164.6 lineto
30108.5 32164.6 lineto
30033.5 32202.1 lineto
29996 32239.6 lineto
29958.5 32314.6 lineto
29921 32464.6 lineto
29921 32652.1 lineto
29958.5 32802 lineto
29996 32877 lineto
30033.5 32914.5 lineto
30108.5 32952 lineto
stroke
newpath
30708.4 32164.6 moveto
30708.4 32689.5 lineto
stroke
newpath
30708.4 32614.6 moveto
30745.9 32652.1 lineto
30820.9 32689.5 lineto
30933.4 32689.5 lineto
31008.4 32652.1 lineto
31045.9 32577.1 lineto
31045.9 32164.6 lineto
stroke
newpath
31045.9 32577.1 moveto
31083.4 32652.1 lineto
31158.4 32689.5 lineto
31270.8 32689.5 lineto
31345.8 32652.1 lineto
31383.3 32577.1 lineto
31383.3 32164.6 lineto
stroke
newpath
31758.3 32164.6 moveto
31758.3 32689.5 lineto
stroke
newpath
31758.3 32614.6 moveto
31795.8 32652.1 lineto
31870.8 32689.5 lineto
31983.2 32689.5 lineto
32058.2 32652.1 lineto
32095.7 32577.1 lineto
32095.7 32164.6 lineto
stroke
newpath
32095.7 32577.1 moveto
32133.2 32652.1 lineto
32208.2 32689.5 lineto
32320.7 32689.5 lineto
32395.7 32652.1 lineto
32433.2 32577.1 lineto
32433.2 32164.6 lineto
stroke
newpath
33970.5 32989.5 moveto
33295.6 31977.1 lineto
stroke
newpath
34982.9 32952 moveto
35057.9 32952 lineto
35132.9 32914.5 lineto
35170.4 32877 lineto
35207.8 32802 lineto
35245.3 32652.1 lineto
35245.3 32464.6 lineto
35207.8 32314.6 lineto
35170.4 32239.6 lineto
35132.9 32202.1 lineto
35057.9 32164.6 lineto
34982.9 32164.6 lineto
34907.9 32202.1 lineto
34870.4 32239.6 lineto
34832.9 32314.6 lineto
34795.4 32464.6 lineto
34795.4 32652.1 lineto
34832.9 32802 lineto
34870.4 32877 lineto
34907.9 32914.5 lineto
34982.9 32952 lineto
stroke
newpath
35582.8 32239.6 moveto
35620.3 32202.1 lineto
35582.8 32164.6 lineto
35545.3 32202.1 lineto
35582.8 32239.6 lineto
35582.8 32164.6 lineto
stroke
newpath
35920.3 32877 moveto
35957.8 32914.5 lineto
36032.7 32952 lineto
36220.2 32952 lineto
36295.2 32914.5 lineto
36332.7 32877 lineto
36370.2 32802 lineto
36370.2 32727 lineto
36332.7 32614.6 lineto
35882.8 32164.6 lineto
36370.2 32164.6 lineto
stroke
newpath
37120.1 32164.6 moveto
36670.2 32164.6 lineto
stroke
newpath
36895.1 32164.6 moveto
36895.1 32952 lineto
36820.1 32839.5 lineto
36745.2 32764.5 lineto
36670.2 32727 lineto
stroke
newpath
37495.1 32164.6 moveto
37645 32164.6 lineto
37720 32202.1 lineto
37757.5 32239.6 lineto
37832.5 32352.1 lineto
37870 32502.1 lineto
37870 32802 lineto
37832.5 32877 lineto
37795 32914.5 lineto
37720 32952 lineto
37570.1 32952 lineto
37495.1 32914.5 lineto
37457.6 32877 lineto
37420.1 32802 lineto
37420.1 32614.6 lineto
37457.6 32539.6 lineto
37495.1 32502.1 lineto
37570.1 32464.6 lineto
37720 32464.6 lineto
37795 32502.1 lineto
37832.5 32539.6 lineto
37870 32614.6 lineto
stroke
newpath
38132.5 32952 moveto
38619.9 32952 lineto
38357.5 32652.1 lineto
38469.9 32652.1 lineto
38544.9 32614.6 lineto
38582.4 32577.1 lineto
38619.9 32502.1 lineto
38619.9 32314.6 lineto
38582.4 32239.6 lineto
38544.9 32202.1 lineto
38469.9 32164.6 lineto
38245 32164.6 lineto
38170 32202.1 lineto
38132.5 32239.6 lineto
stroke
newpath
38919.9 32952 moveto
38919.9 32802 lineto
stroke
newpath
39219.8 32952 moveto
39219.8 32802 lineto
stroke
newpath
40382.2 31864.7 moveto
40344.7 31902.1 lineto
40269.7 32014.6 lineto
40232.2 32089.6 lineto
40194.7 32202.1 lineto
40157.2 32389.6 lineto
40157.2 32539.6 lineto
40194.7 32727 lineto
40232.2 32839.5 lineto
40269.7 32914.5 lineto
40344.7 33027 lineto
40382.2 33064.5 lineto
stroke
newpath
40607.2 32952 moveto
41094.6 32952 lineto
40832.1 32652.1 lineto
40944.6 32652.1 lineto
41019.6 32614.6 lineto
41057.1 32577.1 lineto
41094.6 32502.1 lineto
41094.6 32314.6 lineto
41057.1 32239.6 lineto
41019.6 32202.1 lineto
40944.6 32164.6 lineto
40719.7 32164.6 lineto
40644.7 32202.1 lineto
40607.2 32239.6 lineto
stroke
newpath
42032 32164.6 moveto
42032 32952 lineto
stroke
newpath
42369.5 32164.6 moveto
42369.5 32577.1 lineto
42332 32652.1 lineto
42257 32689.5 lineto
42144.5 32689.5 lineto
42069.5 32652.1 lineto
42032 32614.6 lineto
stroke
newpath
42856.9 32164.6 moveto
42781.9 32202.1 lineto
42744.4 32239.6 lineto
42706.9 32314.6 lineto
42706.9 32539.6 lineto
42744.4 32614.6 lineto
42781.9 32652.1 lineto
42856.9 32689.5 lineto
42969.4 32689.5 lineto
43044.4 32652.1 lineto
43081.9 32614.6 lineto
43119.4 32539.6 lineto
43119.4 32314.6 lineto
43081.9 32239.6 lineto
43044.4 32202.1 lineto
42969.4 32164.6 lineto
42856.9 32164.6 lineto
stroke
newpath
43569.3 32164.6 moveto
43494.3 32202.1 lineto
43456.8 32277.1 lineto
43456.8 32952 lineto
stroke
newpath
44169.2 32202.1 moveto
44094.2 32164.6 lineto
43944.3 32164.6 lineto
43869.3 32202.1 lineto
43831.8 32277.1 lineto
43831.8 32577.1 lineto
43869.3 32652.1 lineto
43944.3 32689.5 lineto
44094.2 32689.5 lineto
44169.2 32652.1 lineto
44206.7 32577.1 lineto
44206.7 32502.1 lineto
43831.8 32427.1 lineto
stroke
newpath
44506.7 32202.1 moveto
44581.7 32164.6 lineto
44731.7 32164.6 lineto
44806.6 32202.1 lineto
44844.1 32277.1 lineto
44844.1 32314.6 lineto
44806.6 32389.6 lineto
44731.7 32427.1 lineto
44619.2 32427.1 lineto
44544.2 32464.6 lineto
44506.7 32539.6 lineto
44506.7 32577.1 lineto
44544.2 32652.1 lineto
44619.2 32689.5 lineto
44731.7 32689.5 lineto
44806.6 32652.1 lineto
stroke
newpath
45106.6 31864.7 moveto
45144.1 31902.1 lineto
45219.1 32014.6 lineto
45256.6 32089.6 lineto
45294.1 32202.1 lineto
45331.6 32389.6 lineto
45331.6 32539.6 lineto
45294.1 32727 lineto
45256.6 32839.5 lineto
45219.1 32914.5 lineto
45144.1 33027 lineto
45106.6 33064.5 lineto
stroke
newpath
46531.4 31864.7 moveto
46493.9 31902.1 lineto
46418.9 32014.6 lineto
46381.5 32089.6 lineto
46344 32202.1 lineto
46306.5 32389.6 lineto
46306.5 32539.6 lineto
46344 32727 lineto
46381.5 32839.5 lineto
46418.9 32914.5 lineto
46493.9 33027 lineto
46531.4 33064.5 lineto
stroke
newpath
46831.4 32689.5 moveto
46831.4 32164.6 lineto
stroke
newpath
46831.4 32614.6 moveto
46868.9 32652.1 lineto
46943.9 32689.5 lineto
47056.4 32689.5 lineto
47131.4 32652.1 lineto
47168.9 32577.1 lineto
47168.9 32164.6 lineto
stroke
newpath
47656.3 32164.6 moveto
47581.3 32202.1 lineto
47543.8 32239.6 lineto
47506.3 32314.6 lineto
47506.3 32539.6 lineto
47543.8 32614.6 lineto
47581.3 32652.1 lineto
47656.3 32689.5 lineto
47768.8 32689.5 lineto
47843.8 32652.1 lineto
47881.3 32614.6 lineto
47918.8 32539.6 lineto
47918.8 32314.6 lineto
47881.3 32239.6 lineto
47843.8 32202.1 lineto
47768.8 32164.6 lineto
47656.3 32164.6 lineto
stroke
newpath
48143.7 32689.5 moveto
48443.7 32689.5 lineto
stroke
newpath
48256.2 32952 moveto
48256.2 32277.1 lineto
48293.7 32202.1 lineto
48368.7 32164.6 lineto
48443.7 32164.6 lineto
stroke
newpath
49306.1 32689.5 moveto
49306.1 31902.1 lineto
stroke
newpath
49306.1 32652.1 moveto
49381.1 32689.5 lineto
49531.1 32689.5 lineto
49606 32652.1 lineto
49643.5 32614.6 lineto
49681 32539.6 lineto
49681 32314.6 lineto
49643.5 32239.6 lineto
49606 32202.1 lineto
49531.1 32164.6 lineto
49381.1 32164.6 lineto
49306.1 32202.1 lineto
stroke
newpath
50131 32164.6 moveto
50056 32202.1 lineto
50018.5 32277.1 lineto
50018.5 32952 lineto
stroke
newpath
50768.4 32164.6 moveto
50768.4 32577.1 lineto
50730.9 32652.1 lineto
50655.9 32689.5 lineto
50505.9 32689.5 lineto
50430.9 32652.1 lineto
stroke
newpath
50768.4 32202.1 moveto
50693.4 32164.6 lineto
50505.9 32164.6 lineto
50430.9 32202.1 lineto
50393.5 32277.1 lineto
50393.5 32352.1 lineto
50430.9 32427.1 lineto
50505.9 32464.6 lineto
50693.4 32464.6 lineto
50768.4 32502.1 lineto
stroke
newpath
51030.9 32689.5 moveto
51330.8 32689.5 lineto
stroke
newpath
51143.4 32952 moveto
51143.4 32277.1 lineto
51180.9 32202.1 lineto
51255.8 32164.6 lineto
51330.8 32164.6 lineto
stroke
newpath
51893.3 32202.1 moveto
51818.3 32164.6 lineto
51668.3 32164.6 lineto
51593.3 32202.1 lineto
51555.8 32277.1 lineto
51555.8 32577.1 lineto
51593.3 32652.1 lineto
51668.3 32689.5 lineto
51818.3 32689.5 lineto
51893.3 32652.1 lineto
51930.8 32577.1 lineto
51930.8 32502.1 lineto
51555.8 32427.1 lineto
stroke
newpath
52605.7 32164.6 moveto
52605.7 32952 lineto
stroke
newpath
52605.7 32202.1 moveto
52530.7 32164.6 lineto
52380.7 32164.6 lineto
52305.7 32202.1 lineto
52268.2 32239.6 lineto
52230.7 32314.6 lineto
52230.7 32539.6 lineto
52268.2 32614.6 lineto
52305.7 32652.1 lineto
52380.7 32689.5 lineto
52530.7 32689.5 lineto
52605.7 32652.1 lineto
stroke
newpath
52905.6 31864.7 moveto
52943.1 31902.1 lineto
53018.1 32014.6 lineto
53055.6 32089.6 lineto
53093.1 32202.1 lineto
53130.6 32389.6 lineto
53130.6 32539.6 lineto
53093.1 32727 lineto
53055.6 32839.5 lineto
53018.1 32914.5 lineto
52943.1 33027 lineto
52905.6 33064.5 lineto
stroke
showpage
grestore
%%EOF
