M48
; DRILL file {KiCad (6.0.2-0)} date Monday, 21 March 2022 at 09:59:59
; FORMAT={-:-/ absolute / inch / decimal}
; #@! TF.CreationDate,2022-03-21T09:59:59+02:00
; #@! TF.GenerationSoftware,Kicad,Pcbnew,(6.0.2-0)
; #@! TF.FileFunction,Plated,1,2,PTH
FMAT,2
INCH
; #@! TA.AperFunction,Plated,PTH,ViaDrill
T1C0.0157
; #@! TA.AperFunction,Plated,PTH,ComponentDrill
T2C0.0197
; #@! TA.AperFunction,Plated,PTH,ComponentDrill
T3C0.0276
; #@! TA.AperFunction,Plated,PTH,ComponentDrill
T4C0.0295
; #@! TA.AperFunction,Plated,PTH,ComponentDrill
T5C0.0307
; #@! TA.AperFunction,Plated,PTH,ComponentDrill
T6C0.0315
; #@! TA.AperFunction,Plated,PTH,ComponentDrill
T7C0.0394
; #@! TA.AperFunction,Plated,PTH,ComponentDrill
T8C0.0461
; #@! TA.AperFunction,Plated,PTH,ComponentDrill
T9C0.0866
; #@! TA.AperFunction,Plated,PTH,ComponentDrill
T10C0.1575
%
G90
G05
T1
X1.9Y-3.27
T3
X1.5933Y-2.4874
X1.5933Y-2.6784
T5
X5.41Y-3.8334
X5.41Y-4.146
X5.51Y-3.8334
X5.51Y-4.146
X5.61Y-3.8334
X5.61Y-4.146
X5.71Y-3.8334
X5.71Y-4.146
T6
X1.715Y-3.7318
X1.715Y-4.0318
X1.88Y-3.7318
X1.88Y-4.0318
X2.5Y-3.9672
X2.5Y-4.2672
X2.9604Y-3.9355
X3.2604Y-3.9355
X3.9576Y-3.5305
X4.0954Y-3.5305
X4.3615Y-3.4105
X4.3615Y-3.8605
X4.5065Y-3.5455
X4.5065Y-3.6805
X4.6615Y-3.4105
X4.6615Y-3.8605
X4.8065Y-3.5455
X4.8065Y-3.6805
X5.3Y-3.0618
X5.45Y-2.3368
X5.45Y-2.5018
X5.6Y-3.0618
X5.75Y-2.3368
X5.75Y-2.5018
X5.755Y-3.0618
X5.76Y-2.9068
X5.8496Y-3.3668
X5.8496Y-3.6668
X5.925Y-2.1418
X5.925Y-2.4418
X6.055Y-3.0618
X6.06Y-2.9068
T7
X2.3844Y-1.6618
X2.385Y-1.8768
X2.3994Y-4.5368
X2.4Y-4.7518
X2.4844Y-1.6618
X2.485Y-1.8768
X2.4994Y-4.5368
X2.5Y-4.7518
X2.5844Y-1.6618
X2.585Y-1.8768
X2.5994Y-4.5368
X2.6Y-4.7518
X2.6539Y-3.0899
X2.6844Y-1.6618
X2.685Y-1.8768
X2.6994Y-4.5368
X2.7Y-4.7518
X2.7539Y-3.0899
X2.7844Y-1.6618
X2.785Y-1.8768
X2.7994Y-4.5368
X2.8Y-4.7518
X2.8539Y-3.0899
X2.8844Y-1.6618
X2.885Y-1.8768
X2.8994Y-4.5368
X2.9Y-4.7518
X2.9539Y-3.0899
X2.9844Y-1.6618
X2.985Y-1.8768
X2.9994Y-4.5368
X3.0Y-4.7518
X3.0539Y-3.0899
X3.0844Y-1.6618
X3.085Y-1.8768
X3.0994Y-4.5368
X3.1Y-4.7518
X3.1539Y-3.0899
X3.1844Y-1.6618
X3.185Y-1.8768
X3.1994Y-4.5368
X3.2Y-4.7518
X3.2539Y-3.0899
X3.2844Y-1.6618
X3.285Y-1.8768
X3.2994Y-4.5368
X3.3Y-4.7518
X3.3539Y-3.0899
X3.3844Y-1.6618
X3.385Y-1.8768
X3.3994Y-4.5368
X3.4Y-4.7518
X3.4539Y-3.0899
X3.462Y-3.2971
X3.4844Y-1.6618
X3.485Y-1.8768
X3.4994Y-4.5368
X3.5Y-4.7518
X3.5539Y-3.0899
X3.5604Y-3.2971
X3.5844Y-1.6618
X3.585Y-1.8768
X3.5994Y-4.5368
X3.6Y-4.7518
X3.6539Y-3.0899
X3.6588Y-3.2971
X3.6844Y-1.6618
X3.685Y-1.8768
X3.6994Y-4.5368
X3.7Y-4.7518
X3.7539Y-3.0899
X3.7844Y-1.6618
X3.785Y-1.8768
X3.7994Y-4.5368
X3.8Y-4.7518
X3.8539Y-3.0899
X3.8844Y-1.6618
X3.885Y-1.8768
X3.8994Y-4.5368
X3.9Y-4.7518
X3.9539Y-3.0899
X3.9844Y-1.6618
X3.985Y-1.8768
X3.9994Y-4.5368
X4.0Y-4.7518
X4.0539Y-3.0899
X4.0844Y-1.6618
X4.085Y-1.8768
X4.0994Y-4.5368
X4.1Y-4.7518
X4.1539Y-3.0899
X4.1844Y-1.6618
X4.185Y-1.8768
X4.1994Y-4.5368
X4.2Y-4.7518
X4.2844Y-1.6618
X4.285Y-1.8768
X4.2994Y-4.5368
X4.3Y-4.7518
X4.3844Y-1.6618
X4.385Y-1.8768
X4.3994Y-4.5368
X4.4Y-4.7518
X4.4844Y-1.6618
X4.485Y-1.8768
X4.4994Y-4.5368
X4.5Y-4.7518
X4.5844Y-1.6618
X4.585Y-1.8768
X4.5994Y-4.5368
X4.6Y-4.7518
X4.6844Y-1.6618
X4.685Y-1.8768
X4.6994Y-4.5368
X4.7Y-4.7518
X4.7844Y-1.6618
X4.785Y-1.8768
X4.7994Y-4.5368
X4.8Y-4.7518
X4.8844Y-1.6618
X4.885Y-1.8768
X4.8994Y-4.5368
X4.9Y-4.7518
X4.9844Y-1.6618
X4.985Y-1.8768
X4.9994Y-4.5368
X5.0Y-4.7518
X5.0166Y-3.7151
X5.0844Y-1.6618
X5.085Y-1.8768
X5.0994Y-4.5368
X5.1Y-4.7518
X5.115Y-3.7151
X5.1844Y-1.6618
X5.185Y-1.8768
X5.1994Y-4.5368
X5.2Y-4.7518
X5.2134Y-3.7151
X5.2533Y-3.9463
X5.2533Y-4.0447
X5.2533Y-4.1431
X5.2844Y-1.6618
X5.285Y-1.8768
X5.2994Y-4.5368
X5.3Y-4.7518
X5.3844Y-1.6618
X5.385Y-1.8768
X5.3994Y-4.5368
X5.4Y-4.7518
X5.4844Y-1.6618
X5.485Y-1.8768
X5.4994Y-4.5368
X5.5Y-4.7518
X5.5844Y-1.6618
X5.585Y-1.8768
X5.5994Y-4.5368
X5.6Y-4.7518
T8
X1.715Y-2.8053
X1.845Y-2.8103
X1.875Y-2.1453
X2.295Y-2.9953
X2.315Y-3.3953
X3.0104Y-3.2755
X3.1104Y-3.7855
X3.4404Y-3.8855
X4.2854Y-3.2655
X5.5084Y-4.2581
T9
X3.3872Y-3.5727
X3.7336Y-3.5727
X4.9418Y-3.4395
X4.9778Y-3.8715
X4.9778Y-4.2179
X5.2882Y-3.4395
T10
X2.5752Y-2.6174
X5.0948Y-2.6174
T2
G00X1.4732Y-2.4412
M15
G01X1.5047Y-2.4412
M16
G05
G00X1.4732Y-2.7246
M15
G01X1.5047Y-2.7246
M16
G05
T4
G00X3.7656Y-2.4317
M15
G01X3.8266Y-2.4317
M16
G05
G00X4.2754Y-2.4317
M15
G01X4.3364Y-2.4317
M16
G05
T0
M30
